[
  {
    "title": "Bảo hiểm công trình",
    "ariaExpanded": true,
    "content": "Bồi thường cho Người được bảo hiểm những thiệt hại, mất mát của dự án xây dựng được bảo hiểm, do những rủi ro bất ngờ và không lường trước như cháy, nổ, bão, mất trộm ...\nBồi thường cho Người được bảo hiểm những thiệt hại của bên thứ ba trong quá trình xây dựng (nếu hợp đồng có mở rộng trách nhiệm bảo hiểm.)\nBồi thường cho Người được bảo hiểm những thiệt hại, mất mát của dự án lắp đặt được bảo hiểm, do những rủi ro bất ngờ và không lường trước như cháy, nổ, bão, mất trộm ...\nBồi thường cho Người được bảo hiểm những thiệt hại của bên thứ ba trong quá trình lắp đặt (nếu hợp đồng có mở rộng trách nhiệm bảo hiểm.)\nBồi thường cho Người được bảo hiểm những thiệt hại, mất mát của máy móc được bảo hiểm đang hoạt động trên công trường, do những rủi ro bất ngờ và không lường trước như cháy, nổ, bão, mất trộm...\nBồi thường cho Người được bảo hiểm những thiệt hại, mất mát của máy móc đang hoạt động, do những rủi ro bất ngờ và không lường trước",
    "nextLevel": true,
    "nextLevelContent": [
      {
        "title": "Bảo hiểm mọi rủi ro trong xây dựng",
        "content": "Yêu cầu tài liệu",
        "ariaExpanded": true,
        "text": [
          "1. Thông báo tổn thất",
          "2. Hợp đồng bảo hiểm",
          "3. Hồ sơ thiết kế của dự án",
          "4. Kết luận điều tra nguyên nhân tổn thất, nếu tổn thất do cháy, trộm cắp hoặc bởi bên thứ ba",
          "5. Biên bản hiện trường và/hoặc Báo cáo giám định",
          "6. Thư yêu cầu bồi thường và hoá đơn/ chứng từ chi phí sửa chữa hoặc thay thế",
          "7. Thư khiếu nại/ biên bản đã gửi/ đã ký với bên có lỗi (nếu tổn thất gây ra bởi bên thứ ba)",
          "8. Các tài liệu khác tuỳ theo từng trường hợp tổn thất"
        ]
      },
      {
        "title": "Bảo hiểm mọi rủi ro lắp đặt",
        "content": "Yêu cầu tài liệu",
        "ariaExpanded": false,
        "text": [
          "1. Thông báo tổn thất",
          "2. Hợp đồng bảo hiểm",
          "3. Hồ sơ thiết kế của dự án",
          "4. Kết luận điều tra nguyên nhân tổn thất, nếu tổn thất do cháy, trộm cắp hoặc bởi bên thứ ba",
          "5. Biên bản hiện trường và/hoặc Báo cáo giám định",
          "6. Thư yêu cầu bồi thường và hoá đơn/ chứng từ chi phí sửa chữa hoặc thay thế",
          "7. Thư khiếu nại/ biên bản đã gửi/ đã ký với bên có lỗi (nếu tổn thất gây ra bởi bên thứ ba)",
          "8. Các tài liệu khác tuỳ theo từng trường hợp tổn thất"
        ]
      },
      {
        "title": "Bảo hiểm máy móc thiết bị chủ thầu",
        "content": "Yêu cầu tài liệu",
        "ariaExpanded": false,
        "text": [
          "1. Thông báo tổn thất",
          "2. Hợp đồng bảo hiểm",
          "3. Hồ sơ kỹ thuật của máy móc và thiết bị ",
          "4. Kết luận điều tra nguyên nhân tổn thất, nếu tổn thất do cháy, trộm cắp hoặc bởi bên thứ ba",
          "5. Biên bản hiện trường và/hoặc Báo cáo giám định",
          "6. Thư yêu cầu bồi thường và hoá đơn/ chứng từ chi phí sửa chữa hoặc thay thế",
          "7. Thư khiếu nại/ biên bản đã gửi/ đã ký với bên có lỗi (nếu tổn thất gây ra bởi bên thứ ba)",
          "8. Các tài liệu khác tuỳ theo từng trường hợp tổn thất"
        ]
      },
      {
        "title": "Bảo hiểm đổ vỡ máy móc",
        "content": "Yêu cầu tài liệu",
        "ariaExpanded": false,
        "text": [
          "1. Thông báo tổn thất",
          "2. Hợp đồng bảo hiểm",
          "3. Hồ sơ kỹ thuật của máy móc và thiết bị ",
          "4. Kết luận điều tra nguyên nhân tổn thất, nếu tổn thất do cháy, trộm cắp hoặc bởi bên thứ ba",
          "5. Biên bản hiện trường và/hoặc Báo cáo giám định",
          "6. Thư yêu cầu bồi thường và hoá đơn/ chứng từ chi phí sửa chữa hoặc thay thế",
          "7. Thư khiếu nại/ biên bản đã gửi/ đã ký với bên có lỗi (nếu tổn thất gây ra bởi bên thứ ba)",
          "8. Các tài liệu khác tuỳ theo từng trường hợp tổn thất"
        ]
      }
    ]
  }
]
