[{
    "title": "Tử vong do tai nạn/ ốm đau, bệnh tật",
    "ariaExpanded": true,
    "content": "Tử vong do ốm đau, bệnh tật, tai nạn (tai nạn giao thông, tai nạn lao động...)",
    "nextLevel": true,
    "nextLevelContent": [{
      "title": "",
      "content": "Yêu cầu tài liệu",
      "ariaExpanded": true,
      "text": [
        "1. Giấy yêu cầu bồi thường",
        "2. Giấy chứng nhận bảo hiểm",
        "3. Bản sao hộ chiếu/ CMND/ CCCD",
        "4. Bản tường trình tai nạn có xác nhận của cơ quan có thẩm quyền (trường hợp tai nạn)",
        "5. Hồ sơ bệnh án (Giấy chứng nhận xuất viện, phiếu điều trị, hóa đơn, bảng kê chi tiết viện phí, tóm tắt bệnh án, kết quả xét nghiệm, nội soi, siêu âm, X quang...)",
        "6. Giấy chứng tử",
        "7. Chứng từ chứng minh quyền thừa kế theo luật định",
        "8. Giấy phép lái xe (trường hợp tai nạn giao thông)"
      ]
    }]
  },
  {
    "title": "Thương tật thân thể do tai nạn",
    "ariaExpanded": false,
    "content": "Thương tật thân thể do tai nạn như tai nạn giao thông, tai nạn lao động, tai nạn sinh hoạt…",
    "nextLevel": true,
    "nextLevelContent": [{
        "title": "Thương tật vĩnh viễn do tai nạn/ ốm đau, bệnh tật",
        "content": "Yêu cầu tài liệu",
        "ariaExpanded": true,
        "text": [
          "1. Giấy yêu cầu bồi thường",
          "2. Giấy chứng nhận bảo hiểm",
          "3. Bản sao hộ chiếu/ CMND/ CCCD",
          "4. Giấy chứng nhận thương tật vĩnh viễn",
          "5. Bản tường trình tai nạn có xác nhận của cơ quan có thẩm quyền",
          "6. Giấy ra viện, phiếu điều trị (trường hợp điều trị nội trú)",
          "7. Giấy chứng nhận phẫu thuật (trường hợp có phẫu thuật)",
          "8. Hóa đơn và bảng kê chi tiết viện phí",
          "9. Hồ sơ bệnh án (Sổ khám bệnh, phiếu chỉ định và kết quả xét nghiệm, chẩn đoán hình ảnh, đơn thuốc, báo cáo y khoa)",
          "10. Giấy phép lái xe (nếu là tai nạn giao thông)"
        ]
      },
      {
        "title": "Thương tật tạm thời",
        "content": "Yêu cầu tài liệu",
        "ariaExpanded": false,
        "text": [
          "1. Giấy yêu cầu bồi thường",
          "2. Giấy chứng nhận bảo hiểm",
          "3. Bản sao hộ chiếu/ CMND/ CCCD",
          "4. Bản tường trình tai nạn có xác nhận của cơ quan có thẩm quyền",
          "5. Giấy ra viện, phiếu điều trị (trường hợp điều trị nội trú)",
          "6. Giấy chứng nhận phẫu thuật (trường hợp có phẫu thuật)",
          "7. Hóa đơn và bảng kê chi tiết viện phí",
          "8. Sổ khám bệnh, phiếu chỉ định và kết quả xét nghiệm, chẩn đoán hình ảnh, đơn thuốc, báo cáo y khoa",
          "9. Bảng chấm công có xác nhận của công ty (trường hợp chi trả trợ cấp nằm viện, mất giảm thu nhập do tai nạn)",
          "10. Giấy phép lái xe (nếu là tai nạn giao thông)"
        ]
      }
    ]
  },
  {
    "title": "Mất tích do tai nạn",
    "ariaExpanded": false,
    "content": "Mất tích do tai nạn",
    "nextLevel": true,
    "nextLevelContent": [{
      "title": "",
      "content": "Yêu cầu tài liệu",
      "ariaExpanded": true,
      "text": [
        "1. Giấy yêu cầu bồi thường",
        "2. Giấy chứng nhận bảo hiểm",
        "3. Bản sao hộ chiếu/ CMND/ CCCD",
        "4. Chứng từ chứng minh quan hệ với người được bảo hiểm",
        "5. Chứng minh quyền thừa kế theo luật định",
        "6. Tuyên bố của tòa án (về việc người được bảo hiểm mất tích do tai nạn trong thời gian bảo hiểm)",
        "7. Bản tường trình tai nạn có xác nhận của cơ quan có thẩm quyền (bản gốc hoặc bản sao hợp pháp)",
        "8. Giấy phép lái xe (nếu là tai nạn giao thông)"
      ]
    }]
  },
  {
    "title": "Ốm đau, bệnh tật, thai sản phải nằm viện, phẫu thuật (CPI)",
    "ariaExpanded": false,
    "content": "Cathay chi trả ngày nằm viện và tỷ lệ phẫu thuật cho khách hàng tham gia thuộc phạm vi bảo hiểm",
    "nextLevel": true,
    "nextLevelContent": [{
      "title": "",
      "content": "Yêu cầu tài liệu",
      "ariaExpanded": true,
      "text": [
        "1. Giấy yêu cầu bồi thường",
        "2. Giấy chứng nhận bảo hiểm",
        "3. Bản sao hộ chiếu/ CMND/ CCCD",
        "4. Chứng minh quan hệ với chủ hợp đồng",
        "5. Bản gốc/ bản sao hợp pháp của giấy ra viện, phiếu điều trị (trường hợp điều trị nội trú)",
        "6. Giấy chứng nhận phẫu thuật hoặc thông tin về phương pháp phẫu thuật trên báo cáo y tế (trường hợp có phẫu thuật)",
        "7. Hồ sơ y tế liên quan (Hóa đơn, bảng kê viện phí, sổ khám bệnh, đơn thuốc...)"
      ]
    }]
  },
  {
    "title": "Chi phí y tế do tai nạn",
    "ariaExpanded": false,
    "content": "Chi phí y tế do tai nạn (X quang, bó bột, phí phẫu thuật, thuốc…)",
    "nextLevel": true,
    "nextLevelContent": [{
      "title": "",
      "content": "Yêu cầu tài liệu",
      "ariaExpanded": true,
      "text": [
        "1. Giấy yêu cầu bồi thường",
        "2. Giấy chứng nhận bảo hiểm",
        "3. Bản sao hộ chiếu/ CMND/ CCCD",
        "4. Bản tường trình tai nạn có xác nhận của cơ quan có thẩm quyền (bản gốc hoặc bản sao hợp pháp)",
        "5. Bản gốc/ bản sao hợp pháp của giấy ra viện, phiếu điều trị (trường hợp điều trị nội trú)",
        "6. Giấy chứng nhận phẫu thuật hoặc thông tin về phương pháp phẫu thuật trên báo cáo y tế (trường hợp có phẫu thuật)",
        "7. Bản kê chi tiết viện phí",
        "8. Sổ khám bệnh/ giấy khám bệnh; phiếu chỉ định và kết quả của các xét nghiệm/ chẩn đoán hình ảnh; đơn thuốc",
        "9. Hóa đơn (Bản gốc)",
        "10. Bảng chấm công có xác nhận công ty (nếu hợp đồng có chi trả trợ cấp nằm viện/ mất giảm thu nhập do tai nạn)",
        "11. Giấy phép lái xe (nếu là tai nạn giao thông)"
      ]
    }]
  },
  {
    "title": "Mở rộng chi phí y tế theo định mức ngày nằm viện",
    "ariaExpanded": false,
    "content": "Mở rộng quyền lợi chi trả cho ngày nằm viện (dựa vào số tiền quy định trên hợp đồng)",
    "nextLevel": true,
    "nextLevelContent": [{
      "title": "",
      "content": "Yêu cầu tài liệu",
      "ariaExpanded": true,
      "text": [
        "1. Giấy yêu cầu bồi thường",
        "2. Giấy chứng nhận bảo hiểm",
        "3. Bản sao hộ chiếu/ CMND/ CCCD",
        "4. Bản tường trình tai nạn có xác nhận của cơ quan có thẩm quyền (bản gốc hoặc bản sao hợp pháp)",
        "5. Bản gốc/ bản sao hợp pháp của giấy ra viện, phiếu điều trị (trường hợp điều trị nội trú)",
        "6. Giấy phép lái xe (nếu là tai nạn giao thông)"
      ]
    }]
  },
  {
    "title": "Mở rộng BH Tai nạn hàng không",
    "ariaExpanded": false,
    "content": "Tai nạn hàng không (điều khoản mở rộng)",
    "nextLevel": true,
    "nextLevelContent": [{
        "title": "Tử vong do tai nạn",
        "content": "Yêu cầu tài liệu",
        "ariaExpanded": true,
        "text": [
          "1. Giấy yêu cầu bồi thường",
          "2. Giấy chứng nhận bảo hiểm",
          "3. Bản sao hộ chiếu/ CMND/ CCCD",
          "4. Chứng minh quan hệ với chủ hợp đồng",
          "5. Bản tường trình tai nạn có xác nhận của cơ quan có thẩm quyền (bản gốc hoặc bản sao hợp pháp)",
          "6. Hồ sơ bệnh án (Giấy chứng nhận xuất viện, phiếu điều trị, hóa đơn VAT cho việc nằm viện, bản kê chi tiết viện phí, tóm tắt bệnh án, kết quả xét nghiệm, nội soi, siêu âm, X quang...)",
          "7. Giấy chứng tử",
          "8. Chứng minh quyền thừa kế theo luật định",
          "9. Giấy phép lái xe (nếu là tai nạn giao thông)"
        ]
      },
      {
        "title": "Thương tật toàn bộ vĩnh viễn",
        "content": "Yêu cầu tài liệu",
        "ariaExpanded": false,
        "text": [
          "1. Giấy yêu cầu bồi thường",
          "2. Giấy chứng nhận bảo hiểm",
          "3. Bản sao hộ chiếu/ CMND/ CCCD",
          "4. Giấy chứng nhận thương tật vĩnh viễn",
          "5. Bản tường trình tai nạn có xác nhận của cơ quan có thẩm quyền (bản gốc hoặc bản sao hợp pháp)",
          "6. Bản gốc/ bản sao hợp pháp của giấy ra viện, phiếu điều trị (trường hợp điều trị nội trú)",
          "7. Giấy chứng nhận phẫu thuật hoặc thông tin về phương pháp phẫu thuật trên báo cáo y tế (trường hợp có phẫu thuật)",
          "8. Bản kê chi tiết viện phí",
          "9. Sổ khám bệnh/ giấy khám bệnh; phiếu chỉ định và kết quả của các xét nghiệm/ chẩn đoán hình ảnh; đơn thuốc",
          "10. Hóa đơn",
          "11. Giấy phép lái xe (nếu là tai nạn giao thông)"
        ]
      },
      {
        "title": "Thương tật bộ phận vĩnh viễn",
        "content": "Yêu cầu tài liệu",
        "ariaExpanded": false,
        "text": [
          "1. Giấy yêu cầu bồi thường",
          "2. Giấy chứng nhận bảo hiểm",
          "3. Bản sao hộ chiếu/ CMND/ CCCD",
          "4. Giấy chứng nhận thương tật vĩnh viễn",
          "5. Bản tường trình tai nạn có xác nhận của cơ quan có thẩm quyền (bản gốc hoặc bản sao hợp pháp)",
          "6. Bản gốc/ bản sao hợp pháp của giấy ra viện, phiếu điều trị (trường hợp điều trị nội trú)",
          "7. Giấy chứng nhận phẫu thuật hoặc thông tin về phương pháp phẫu thuật trên báo cáo y tế (trường hợp có phẫu thuật)",
          "8. Bản kê chi tiết viện phí",
          "9. Sổ khám bệnh/ giấy khám bệnh; phiếu chỉ định và kết quả của các xét nghiệm/ chẩn đoán hình ảnh; đơn thuốc",
          "10. Hóa đơn",
          "11. Giấy phép lái xe (nếu là tai nạn giao thông)"
        ]
      }
    ]
  },
  {
    "title": "Tử vong hoặc thương tật thân thể\ndo hành động cứu người, cứu tài sản",
    "ariaExpanded": false,
    "content": "Tử vong/ Thương tật do cứu người/ tài sản",
    "nextLevel": true,
    "nextLevelContent": [{
      "title": "",
      "content": "Yêu cầu tài liệu",
      "ariaExpanded": true,
      "text": [
        "1. Giấy yêu cầu bồi thường",
        "2. Giấy chứng nhận bảo hiểm",
        "3. Bản sao hộ chiếu/ CMND/ CCCD",
        "4. Chứng minh quan hệ với chủ hợp đồng",
        "5. Bản tường trình tai nạn có xác nhận của cơ quan có thẩm quyền (bản gốc hoặc bản sao hợp pháp)",
        "6. Hồ sơ bệnh án (Giấy chứng nhận xuất viện, phiếu điều trị, hóa đơn VAT cho việc nằm viện, bảng kê chi tiết viện phí, tóm tắt bệnh án, kết quả xét nghiệm, nội soi, siêu âm, X quang...)",
        "7. Giấy chứng tử",
        "8. Chứng minh quyền thừa kế theo luật định",
        "9. Giấy phép lái xe (nếu là tai nạn giao thông)"
      ]
    }]
  },
  {
    "title": "Tham gia hoạt động thể thao chuyên nghiệp, cuộc đua, phá hủy công trình, hầm mỏ",
    "ariaExpanded": false,
    "content": "Thương tật do thể thao nguy hiểm, cuộc đua, phá công trình, hầm mỏ",
    "nextLevel": true,
    "nextLevelContent": [{
        "title": "Thương tật toàn bộ vĩnh viễn",
        "content": "Yêu cầu tài liệu",
        "ariaExpanded": true,
        "text": [
          "1. Giấy yêu cầu bồi thường",
          "2. Giấy chứng nhận bảo hiểm",
          "3. Bản sao hộ chiếu/ CMND/ CCCD",
          "4. Giấy chứng nhận thương tật vĩnh viễn",
          "5. Bản tường trình tai nạn có xác nhận của cơ quan có thẩm quyền (bản gốc hoặc bản sao hợp pháp)",
          "6. Bản gốc/ bản sao hợp pháp của giấy ra viện, phiếu điều trị (trường hợp điều trị nội trú)",
          "7. Giấy chứng nhận phẫu thuật hoặc thông tin về phương pháp phẫu thuật trên báo cáo y tế (trường hợp có phẫu thuật)",
          "8. Bản kê chi tiết viện phí",
          "9. Sổ khám bệnh/ giấy khám bệnh, phiếu chỉ định và kết quả của các xét nghiệm/ chẩn đoán hình ảnh, đơn thuốc...",
          "10. Hóa đơn",
          "11. Giấy phép lái xe (nếu là tai nạn giao thông)"
        ]
      },
      {
        "title": "Thương tật bộ phận vĩnh viễn",
        "content": "Yêu cầu tài liệu",
        "ariaExpanded": false,
        "text": [
          "1. Giấy yêu cầu bồi thường",
          "2. Giấy chứng nhận bảo hiểm",
          "3. Bản sao hộ chiếu/ CMND/ CCCD",
          "4. Giấy chứng nhận thương tật vĩnh viễn",
          "5. Bản tường trình tai nạn có xác nhận của cơ quan có thẩm quyền (bản gốc hoặc bản sao hợp pháp)",
          "6. Bản gốc/ bản sao hợp pháp của giấy ra viện, phiếu điều trị (trường hợp điều trị nội trú)",
          "7. Giấy chứng nhận phẫu thuật hoặc thông tin về phương pháp phẫu thuật trên báo cáo y tế (trường hợp có phẫu thuật)",
          "8. Bản kê chi tiết viện phí",
          "9. Sổ khám bệnh/ giấy khám bệnh, phiếu chỉ định và kết quả của các xét nghiệm/ chẩn đoán hình ảnh, đơn thuốc...",
          "10. Hóa đơn",
          "11. Giấy phép lái xe (nếu là tai nạn giao thông)"
        ]
      },
      {
        "title": "Thương tật tạm thời",
        "content": "Yêu cầu tài liệu",
        "ariaExpanded": false,
        "text": [
          "1. Giấy yêu cầu bồi thường",
          "2. Giấy chứng nhận bảo hiểm",
          "3. Bản sao hộ chiếu/ CMND/ CCCD",
          "4. Bản tường trình tai nạn có xác nhận của cơ quan có thẩm quyền (bản gốc hoặc bản sao hợp pháp)",
          "5. Bản gốc/ bản sao hợp pháp của giấy ra viện, phiếu điều trị (trường hợp điều trị nội trú)",
          "6. Giấy chứng nhận phẫu thuật hoặc thông tin về phương pháp phẫu thuật trên báo cáo y tế (trường hợp có phẫu thuật)",
          "7. Bản kê chi tiết viện phí",
          "8. Sổ khám bệnh/ giấy khám bệnh, phiếu chỉ định và kết quả của các xét nghiệm/ chẩn đoán hình ảnh, đơn thuốc...",
          "9. Hóa đơn",
          "10. Bảng chấm công có xác nhận công ty (nếu hợp đồng có chi trả trợ cấp nằm viện/ mất giảm thu nhập do tai nạn)",
          "11. Giấy phép lái xe (nếu là tai nạn giao thông)"
        ]
      }
    ]
  },
  {
    "title": "Trợ cấp lương trong thời gian điều trị",
    "ariaExpanded": false,
    "content": "Trợ cấp lương trong thời gian điều trị y tế (dựa trên số tiền quy định trên hợp đồng)",
    "nextLevel": true,
    "nextLevelContent": [{
      "title": "",
      "content": "Yêu cầu tài liệu",
      "ariaExpanded": true,
      "text": [
        "1. Giấy yêu cầu bồi thường",
        "2. Giấy chứng nhận bảo hiểm",
        "3. Bản sao hộ chiếu/ CMND/ CCCD",
        "4. Giấy chứng nhận xuất viện, giấy nghỉ hưởng BHXH và đơn thuốc/ hóa đơn (cùng ngày)",
        "5. Bảng chấm công có xác nhận công ty (nếu hợp đồng có chi trả trợ cấp nằm viện/ mất giảm thu nhập do tai nạn)",
        "6. Phiếu lương (nếu số tiền trợ cấp mỗi ngày không được đề cập trong hợp đồng)",
        "7. Bản tường trình tai nạn có xác nhận của cơ quan có thẩm quyền nếu trợ cấp hàng ngày do tai nạn"
      ]
    }]
  },
  {
    "title": "Chăm sóc răng",
    "ariaExpanded": false,
    "content": "Chăm sóc nha khoa cơ bản (cạo vôi răng, viêm nướu, trám răng, nhổ răng bệnh lý…)",
    "nextLevel": true,
    "nextLevelContent": [{
      "title": "",
      "content": "Yêu cầu tài liệu",
      "ariaExpanded": true,
      "text": [
        "1. Giấy yêu cầu bồi thường",
        "2. Giấy chứng nhận bảo hiểm",
        "3. Bản sao hộ chiếu/ CMND/ CCCD",
        "4. Hóa đơn (Bản gốc)",
        "5. Hồ sơ điều trị, phiếu chỉ định và kết quả  X quang/ xét nghiệm, đơn thuốc..."
      ]
    }]
  },
  {
    "title": "Chi phí y tế cho trường hợp điều trị biến chứng thai sản/ sinh",
    "ariaExpanded": false,
    "content": "Chăm sóc thai sản (phí phẫu thuật, tiền giường, phòng mổ…)",
    "nextLevel": true,
    "nextLevelContent": [{
      "title": "",
      "content": "Yêu cầu tài liệu",
      "ariaExpanded": true,
      "text": [
        "1. Giấy yêu cầu bồi thường",
        "2. Giấy chứng nhận bảo hiểm",
        "3. Bản sao hộ chiếu/ CMND/ CCCD",
        "4. Hóa đơn (Bản gốc)",
        "5. Hồ sơ bệnh án (Giấy chứng nhận xuất viện, phiếu điều trị, hóa đơn, bảng kê chi tiết viện phí, chỉ định và kết quả xét nghiệm, nội soi, siêu âm, X quang...)"
      ]
    }]
  },
  {
    "title": "Điều trị ngoại trú",
    "ariaExpanded": false,
    "content": "Điều trị ngọai trú do bệnh tật (ho, viêm họng, sốt, tiêu chảy…)",
    "nextLevel": true,
    "nextLevelContent": [{
      "title": "",
      "content": "Yêu cầu tài liệu",
      "ariaExpanded": true,
      "text": [
        "1. Giấy yêu cầu bồi thường",
        "2. Giấy chứng nhận bảo hiểm",
        "3. Bản sao hộ chiếu/ CMND/ CCCD",
        "4. Hóa đơn (Bản gốc)",
        "5. Hồ sơ điều trị, phiếu chỉ định và kết quả  X quang/ xét nghiệm, đơn thuốc..."
      ]
    }]
  }
]
