[
  {
    "title": "Liability insurance",
    "ariaExpanded": true,
    "content": "Cathay Insurance shall indemnify the Insured against:\na. All sums which the Insured becomes legally liable to pay as compensation in respect of accidental bodily injury to or illness of any person; accidental loss of or damage to the property.\nb. All costs and expenses of litigation.",
    "nextLevel": true,
    "nextLevelContent": [
      {
        "title": "Product Liability",
        "content": "Claim Documents",
        "ariaExpanded": true,
        "text": [
          "1. Notice of loss",
          "2. Insurance Policy/Certificate",
          "3. Claim letter of the third party",
          "4. The investigation conclusions of the  authorities and/or the court decisions",
          "5. Site survey minute and/or survey report",
          "6. The document of the costs and expenses that the third party claim",
          "7. The invoice and/or the sale contract and  the technical data of the insured products",
          "8. The other document is depended by the loss",
          "9. Claim letter of the Insured"
        ]
      },
      {
        "title": "Public Liability",
        "content": "Claim Documents",
        "ariaExpanded": false,
        "text": [
          "1. Notice of loss",
          "2. Insurance Policy/Certificate",
          "3. Claim letter of the third party",
          "4. The investigation conclusions of the  authorities and/or the court decisions",
          "5. Site survey minute and/or survey report",
          "6. The document of the costs and expenses that the third party claim",
          "7. The other document is depended by the loss",
          "8. Claim letter of the Insured"
        ]
      }
    ]
  }
]
