[{
    "title": "Compulsory Insurance",
    "ariaExpanded": true,
    "content": "Compensate damage to the body, life and property to a third party caused by the motor vehicle",
    "nextLevel": true,
    "nextLevelContent": [{
        "title": "Death",
        "content": "Claim Documents",
        "ariaExpanded": true,
        "text": [
          "1. Declaration of accident notification and claim",
          "2. Certificate of Insurance / Insurance Contract",
          "3. Vehicle registration certificate (Vehicle purchase and sale contract, authorization)",
          "4. Driver's license",
          "5. ID card of the owner and driver",
          "6. Accident investigation conclusions",
          "7. Certificate of inspection of technical safety and environmental protection of road motor vehicles (exclude motobikes)",
          "8. Documents of third party damage: Identity document, Death certificate",
          "9. The other documents required by Cathay"
        ]
      },
      {
        "title": "Injury",
        "content": "Claim Documents",
        "ariaExpanded": false,
        "text": [
          "1. Declaration of accident notification and claim",
          "2. Certificate of Insurance / Insurance Contract",
          "3. Vehicle registration certificate (Vehicle purchase and sale contract, authorization)",
          "4. Driver's license",
          "5. ID card of the owner and driver",
          "6. Accident investigation conclusions",
          "7. Certificate of inspection of technical safety and environmental protection of road motor vehicles (exclude motobikes)",
          "8. Documents of third party damage: Identity document, Hospitalization certificate, Hospital discharge certificate, Injury certificate, Surgery certificate, Treatment cost list, Prescription, Invoice, X-ray...",
          "9. The other documents required by Cathay"
        ]
      },
      {
        "title": "Property Damage",
        "content": "Claim Documents",
        "ariaExpanded": false,
        "text": [
          "1. Declaration of accident notification and claim",
          "2. Certificate of Insurance / Insurance Contract",
          "3. Vehicle registration certificate (Vehicle purchase and sale contract, authorization)",
          "4. Driver's license",
          "5. ID card of the owner and driver",
          "6. Accident investigation conclusions",
          "7. Certificate of inspection of technical safety and environmental protection of road motor vehicles (exclude motobikes)",
          "8. Documents of third party damage: Photos proving losses, Repairing quotes, Repairing invoice, Minutes of acceptance test and repair...",
          "9. The other documents required by Cathay"
        ]
      }
    ]
  },
  {
    "title": "Car Physical Damage Insurance",
    "ariaExpanded": false,
    "content": "Compensation for the insured person for material damage of vehicle caused by the accident. Pay rescue costs and prevent losses",
    "nextLevel": true,
    "nextLevelContent": [{
        "title": "Fire and Explosion",
        "content": "Claim Documents",
        "ariaExpanded": true,
        "text": [
          "1. Declaration of accident notification and claim",
          "2. Certificate of Insurance / Insurance Contract",
          "3. Vehicle registration certificate (Vehicle purchase and sale contract, authorization)",
          "4. Driver's license",
          "5. ID card of the owner and driver",
          "6. Accident investigation conclusions",
          "7. Certificate of inspection of technical safety and environmental protection of road motor vehicles (exclude motobikes)",
          "8. Site map, photos proving losses",
          "9. Repairing quotes, Repairing invoice, Bill",
          "10. Acceptance record of repair, Repairing Contract, Contract liquidation record",
          "11. The other documents required by Cathay"
        ]
      },
      {
        "title": "Stolen, Robbed, Deprived",
        "content": "Claim Documents",
        "ariaExpanded": false,
        "text": [
          "1. Declaration of accident notification and claim",
          "2. Certificate of Insurance / Insurance Contract",
          "3. Vehicle registration certificate (Vehicle purchase and sale contract, authorization)",
          "4. Driver's license",
          "5. ID card of the owner and driver",
          "6. Accident investigation conclusions",
          "7. Certificate of inspection of technical safety and environmental protection of road motor vehicles (exclude motobikes)",
          "8. Site map, photos proving losses",
          "9. Repairing quotes, Repairing invoice, Bill",
          "10. Acceptance record of repair, Repairing Contract, Contract liquidation record",
          "11. The other documents required by Cathay"
        ]
      },
      {
        "title": "Collide",
        "content": "Claim Documents",
        "ariaExpanded": false,
        "text": [
          "1. Declaration of accident notification and claim",
          "2. Certificate of Insurance / Insurance Contract",
          "3. Vehicle registration certificate (Vehicle purchase and sale contract, authorization)",
          "4. Driver's license",
          "5. ID card of the owner and driver",
          "6. Accident investigation conclusions",
          "7. Certificate of inspection of technical safety and environmental protection of road motor vehicles (exclude motobikes)",
          "8. Site map, photos proving losses",
          "9. Repairing quotes, Repairing invoice, Bill",
          "10. Acceptance record of repair, Repairing Contract, Contract liquidation record",
          "11. The other documents required by Cathay"
        ]
      },
      {
        "title": "Nature Disaster",
        "content": "Claim Documents",
        "ariaExpanded": false,
        "text": [
          "1. Declaration of accident notification and claim",
          "2. Certificate of Insurance / Insurance Contract",
          "3. Vehicle registration certificate (Vehicle purchase and sale contract, authorization)",
          "4. Driver's license",
          "5. ID card of the owner and driver",
          "6. Accident investigation conclusions",
          "7. Certificate of inspection of technical safety and environmental protection of road motor vehicles (exclude motobikes)",
          "8. Site map, photos proving losses",
          "9. Repairing quotes, Repairing invoice, Bill",
          "10. Acceptance record of repair, Repairing Contract, Contract liquidation record",
          "11. The other documents required by Cathay"
        ]
      },
      {
        "title": "Unintentional Behavior",
        "content": "Claim Documents",
        "ariaExpanded": false,
        "text": [
          "1. Declaration of accident notification and claim",
          "2. Certificate of Insurance / Insurance Contract",
          "3. Vehicle registration certificate (Vehicle purchase and sale contract, authorization)",
          "4. Driver's license",
          "5. ID card of the owner and driver",
          "6. Accident investigation conclusions",
          "7. Certificate of inspection of technical safety and environmental protection of road motor vehicles (exclude motobikes)",
          "8. Site map, photos proving losses",
          "9. Repairing quotes, Repairing invoice, Bill",
          "10. Acceptance record of repair, Repairing Contract, Contract liquidation record",
          "11. The other documents required by Cathay"
        ]
      }
    ]
  },
  {
    "title": "Motobike Physical Damage Insurance",
    "ariaExpanded": false,
    "content": "Compensation for total loss due to theft and fire",
    "nextLevel": true,
    "nextLevelContent": [{
        "title": "Fire and Explosion",
        "content": "Claim Documents",
        "ariaExpanded": "true",
        "text": [
          "1. Declaration of accident notification and claim",
          "2. Certificate of Insurance / Insurance Contract",
          "3. Vehicle registration certificate (Vehicle purchase and sale contract, authorization)",
          "4. Driver's license",
          "5. ID card of the owner and driver",
          "6. Accident investigation conclusions",
          "7. Site map, photos proving losses",
          "8. Repairing quotes, Repairing contract",
          "9. Repairing, replacement, renewal invoice",
          "10. The other documents required by Cathay"
        ]
      },
      {
        "title": "Stolen, Robbed",
        "content": "Claim Documents",
        "ariaExpanded": false,
        "text": [
          "1. Declaration of accident notification and claim",
          "2. Certificate of Insurance / Insurance Contract",
          "3. Vehicle registration certificate (Vehicle purchase and sale contract, authorization)",
          "4. Driver's license",
          "5. ID card of the owner and driver",
          "6. Accident investigation conclusions",
          "7. Report on stolen, robbed, deprived motobike certified by competent authorities",
          "8. Site map",
          "9. Decision to investigate and to initiate",
          "10. Decision to suspend investigation and initiation",
          "11. Replacement, renewal invoice",
          "12. The other documents required by Cathay"
        ]
      }
    ]
  },
  {
    "title": "Driver/Driver's Assistant and Passenger Insurance",
    "ariaExpanded": false,
    "content": "Compensation for damage to the body and life of the insured person",
    "nextLevel": true,
    "nextLevelContent": [{
        "title": "Death",
        "content": "Claim Documents",
        "ariaExpanded": true,
        "text": [
          "1. Declaration of accident notification and claim",
          "2. Certificate of Insurance / Insurance Contract",
          "3. Vehicle registration certificate (Vehicle purchase and sale contract, authorization)",
          "4. Driver's license",
          "5. ID card of the owner and driver",
          "6. ID card of the insured",
          "7. Accident investigation conclusions",
          "8. Certificate of inspection of technical safety and environmental protection of road motor vehicles (exclude motobikes)",
          "9. Death certificate",
          "10. The other documents required by Cathay"
        ]
      },
      {
        "title": "Injury",
        "content": "Claim Documents",
        "ariaExpanded": false,
        "text": [
          "1. Declaration of accident notification and claim",
          "2. Certificate of Insurance / Insurance Contract",
          "3. Vehicle registration certificate (Vehicle purchase and sale contract, authorization)",
          "4. Driver's license",
          "5. ID card of the owner and driver",
          "6. ID card of the insured",
          "7. Accident investigation conclusions",
          "8. Certificate of inspection of technical safety and environmental protection of road motor vehicles (exclude motobikes)",
          "9. Hospitalization certificate, Hospital discharge certificate, Injury certificate, Surgery certificate, Treatment cost list,...",
          "10. The other documents required by Cathay"
        ]
      }
    ]
  },
  {
    "title": "Comprehensive Insurance (Goods)",
    "ariaExpanded": false,
    "content": "Pay the insured person the amount that they must compensate the owner of the goods due to the damage of the cargo. Pay costs to prevent loss, storage, and transportation cargo.",
    "nextLevel": true,
    "nextLevelContent": [{
      "title": "Comprehensive Insurance (Goods)",
      "content": "Claim Documents",
      "ariaExpanded": true,
      "text": [
        "1. Declaration of accident notification and claim",
        "2. Certificate of Insurance / Insurance Contract",
        "3. Vehicle registration certificate (Vehicle purchase and sale contract, authorization)",
        "4. Driver's license",
        "5. ID card of the owner and driver",
        "6. Accident investigation conclusions",
        "7. Certificate of inspection of technical safety and environmental protection of road motor vehicles (exclude motobikes)",
        "8. Site map, photos proving losses",
        "9. Freight contract",
        "10. Packing list",
        "11. Repairing, replacement quotes",
        "12. Repairing invoice, Bill",
        "13. The other documents required by Cathay"
      ]
    }
  ]
  }
]
