[{
  "title": "Property Insurance",
  "ariaExpanded": true,
  "content": "Compensating the Insured for the loss to or the damage to the insured subject-matters caused by the unforeseen and suddenly risks such as the fire, the explosion, the storm, the stolen …",
  "nextLevel": true,
  "nextLevelContent": [{
    "title": "Property All Risk",
    "content": "Claim Documents",
    "ariaExpanded": true,
    "text": [
      "1. Notice of loss",
      "2. Insurance Policy",
      "3. Fixed asset list",
      "4. The document of the original cost of the damaged/ loss properties",
      "5. Police conclusion of the cause of loss, if the loss occurred by fire, thief or the third parties",
      "6. Site survey minute and/or survey report",
      "7. Claim letter and the invoice of the repairing /replacement cost",
      "8. The letter/record send to/sign with the people at fault (if the loss occurred by the third parties)",
      "9. The other document is depended by the loss"
    ]
  }]
}]
