{
  "remark-alert": "alert 底層",
  "AlertButton": {
    "A0001": "我知道了"
  },

  "remark-no-page": "頁面不存在",
  "noPage": {
    "NP001": "頁面不存在",
    "NP002": "你可以嘗試",
    "NP003": "首頁"
  },

  "remark-dateRangePicker": "日期",
  "dateRangePicker": {
    "start": "開始時間",
    "end": "結束時間",
    "week": {
      "W0001": "Mon",
      "W0002": "Tue",
      "W0003": "Wed",
      "W0004": "Thu",
      "W0005": "Fri",
      "W0006": "Sat",
      "W0007": "Sun"
    },
    "month": {
      "M0001": "Jan",
      "M0002": "Feb",
      "M0003": "Mar",
      "M0004": "Apr",
      "M0005": "May",
      "M0006": "Jun",
      "M0007": "Jul",
      "M0008": "Aug",
      "M0009": "Sep",
      "M0010": "Oct",
      "M0011": "Nov",
      "M0012": "Dec"
    }
  },
  "remark-errorMessage": "錯誤訊息",
  "ER": {
    "ER001": "帳號或密碼無效，請確認後再登入",
    "ER002": "請輸入9碼或12碼數字",
    "ER003": "請填寫生日",
    "ER004": "請輸入正確姓名",
    "ER005": "請輸入英文或越文姓名",
    "ER006": "請輸入正確手機號碼",
    "ER007": "請輸入正確E-mail",
    "ER008": "此信箱已註冊過會員",
    "ER009": "請輸入正確格式的密碼",
    "ER010": "密碼不一致",
    "ER011": "8~12字元",
    "ER012": "資料錯誤，請確認後再輸入",
    "ER013": "驗證碼錯誤",
    "ER014": "保險起訖日期時間需大於+6小時後",
    "ER015": "變更後的日期時間不可與原日期時間相同",
    "ER016": "變更後的開始日期時間不可大於會員生日80歲",
    "ER017": "此欄必填",
    "ER018": "上傳失敗，檔案超過7MB",
    "ER019": "驗證失敗",
    "ER020": "與新密碼不一致",
    "ER021": "密碼錯誤",
    "ER022": "密碼格式需為8~12字元",
    "ER023": "格式錯誤",
    "ER024": "數量必須大於1",
    "ER025": "必填",
    "ER026": "請輸入正確班機號碼",
    "ER027": "ID與帳號不吻合，請確認後再登入",
    "ER028": "保期錯誤",
    "ER029": "很抱歉，<br>保險起訖日期時間需大於+6小時後。",
    "ER030": "請輸入正確的保單號碼",
    "ER031": "請輸入文字長度總長度為",
    "ER032": "個字",
    "ER033": "Mail已註冊",
    "ER034": "身分證與年份後兩碼不符",
    "ER035": "請輸入正確身分證號碼",
    "ER036": "身份證字號與生日、性別不符",
    "ER037": "會員已存在",
    "ER038": "投保人年紀未滿18歲",
    "ER039": "錯誤提示",
    "ER040": "不可有特殊字元",
    "ER041": "請輸入正確手機號碼",
    "ER042": "請輸入正確E-mail",
    "ER043": "請輸入正確聯絡地址",
    "ER044": "請輸入正確車牌號碼",
    "ER045": "請輸入正確文字長度總長度為",
    "enter": {
      "ER001": "請輸入",
      "ER001_": {
        "ES001": "9碼或12碼數字",
        "ES002": "英文或越文姓名",
        "ES003": "文字長度總長度為",
        "ES004": "身分證字號",
        "ES005": "生日",
        "ES006": "手機號碼",
        "ES007": "E-mail",
        "ES008": "備用E-mail",
        "ES009": "聯絡地址",
        "ES010": "密碼",
        "ES011": "帳號",
        "ES012": "保單號碼",
        "ES013": "座位數",
        "ES014": "車牌號碼",
        "ES015": "車身號碼",
        "ES016": "引擎號碼",
        "ES017": "班機編號",
        "ES018": "起飛機場",
        "ES019": "降落機場",
        "ES020": "強制證號/保單號碼",
        "ES021": "驗證碼",
        "ES022": "您的意見"
      },
      "ER002": "請輸入正確",
      "ER002_": {
        "ES001": "姓名",
        "ES002": "手機號碼",
        "ES003": "E-mail",
        "ES004": "格式的密碼",
        "ES005": "班機號碼",
        "ES006": "的保單號碼",
        "ES007": "身分證號碼",
        "ES008": "強制證號/保單號碼",
        "ES009": "車牌號碼",
        "ES010": "文字長度總長度為",
        "ES011": "驗證碼",
        "ES012": "聯絡地址",
        "ES014": "帳號"
      }
    },
    "select": {
      "ER001": "請選擇",
      "ER001_": {
        "ES001": "性別",
        "ES002": "省份",
        "ES003": "縣",
        "ES004": "班機日期",
        "ES005": "生日",
        "ES006": "車牌號碼/車身號碼/引擎號碼",
        "ES007": "意見類型"
      }
    }
  },
  "remark-placeHolderMessage": "PlaceHolder",
  "PH": {
    "PH001": "輸入想找尋的內容，讓國泰產險來幫你",
    "PH002": "請輸入9或12碼身分證字號",
    "PH003": "請輸入出生年月日",
    "PH004": "請輸入姓名",
    "PH005": "請輸入手機號碼",
    "PH006": "請輸入E-mail",
    "PH007": "請輸入電子郵件",
    "PH008": "請輸入密碼",
    "PH009": "需為8-12位英數字",
    "PH010": "請輸入省分",
    "PH011": "請輸入郡縣",
    "PH012": "請輸入詳細地址",
    "PH013": "請選擇日期",
    "PH014": "請選擇時間",
    "PH015": "請選擇人數",
    "PH016": "請輸入生日",
    "PH017": "請輸入日期",
    "PH018": "請輸入機場代號、城市、國家 ",
    "PH019": "請選擇車種",
    "PH020": "請選擇類型",
    "PH021": "請選擇保險期間",
    "PH022": "請選擇保額",
    "PH023": "請選擇保額人數",
    "PH024": "請輸入車主姓名",
    "PH025": "請輸入車牌號碼",
    "PH026": "請輸入車身號碼",
    "PH027": "請輸入引擎號碼",
    "PH028": "請選擇險種",
    "PH029": "請選擇理賠項目",
    "PH030": "請輸入班機編號",
    "PH031": "請選擇班機日期",
    "PH032": "請選擇起飛機場",
    "PH033": "請選擇降落機場",
    "PH034": "上傳登機證",
    "PH035": "上傳電子機票",
    "PH036": "請敘述事發經過",
    "PH037": "身分證(正面)",
    "PH038": "身分證(反面)",
    "PH039": "請輸入備用信箱",
    "PH040": "請輸入舊密碼",
    "PH041": "Hi, 在找什麼嗎？輸入想找尋的內容",
    "PH042": "請選擇額度",
    "PH043": "請選擇保障人數",
    "PH044": "請選擇付款方式",
    "PH045": "請閱讀和同意後勾選",
    "PH046": "請輸入保單號碼",
    "enter": {
      "F0001": "請輸入",
      "F0001_": {
        "FS001": "9或12碼身分證字號",
        "FS002": "出生年月日",
        "FS003": "姓名",
        "FS004": "手機號碼",
        "FS005": "E-mail",
        "FS006": "電子郵件",
        "FS007": "密碼",
        "FS008": "省分",
        "FS009": "郡縣",
        "FS010": "詳細地址",
        "FS011": "生日",
        "FS012": "日期",
        "FS013": "機場代號、城市、國家 ",
        "FS014": "車主姓名",
        "FS015": "車牌號碼",
        "FS016": "車身號碼",
        "FS017": "引擎號碼",
        "FS018": "班機編號",
        "FS019": "備用信箱",
        "FS020": "舊密碼",
        "FS021": "座位數",
        "FS022": "強制證號/保單號碼",
        "FS023": "分行地址"
      },
      "F0002": "請選擇",
      "F0002_": {
        "FS001": "日期",
        "FS002": "時間",
        "FS003": "人數",
        "FS004": "車種",
        "FS005": "類型",
        "FS006": "保險期間",
        "FS007": "保額",
        "FS008": "保額人數",
        "FS009": "險種",
        "FS010": "理賠項目",
        "FS011": "班機日期",
        "FS012": "起飛機場",
        "FS013": "降落機場",
        "FS014": "額度",
        "FS015": "保障人數",
        "FS016": "郡縣"
      }
    }
  },
  "payment": {
    "L0001": "付款成功",
    "L0002": "付款已取消",
    "L0003": "訂單存檔失敗",
    "L0004": "確認付款",
    "L0005": "確定",
    "L0006": "取消"
  },
  "remark-marquee": "跑馬燈",
  "marqueeMessage": {
    "MM001": "受新型冠狀病毒疫情影響，部分旅險受新型冠狀病毒疫情影響，部分旅險受新型冠狀病毒疫情影響，部分旅險受新型冠狀病毒疫情影響，部分旅險受新型冠狀病毒疫情影響，部分旅險受新型冠狀病毒疫情影響，部分旅險",
    "MM002": "更多消息"
  },
  "remark-FAQ": "QA",
  "faq": {
    "faq001": "Q.",
    "faq002": "A.",
    "faq003": "更多問題"
  },
  "remark-popError": "付款失敗POP",
  "popError": {
    "P0001": "付款失敗",
    "P0002": "付款尚未成功，",
    "P0003": "請重新選擇其他方式付款",
    "P0004": "若有任何問題請聯絡客服, ",
    "P0005": "服務時間 08:30 - 17:30",
    "P0006": "我知道了",
    "P0007": "聯絡客服"
  },
  "remark-popUp": "popUP窗",
  "popup": {
    "P0001": "你已開通線下保單驗證<br />無須重複開通",
    "P0002": "修改成功",
    "P0003": "",
    "P0004": "",
    "P0005": "",
    "P0006": "",
    "P0007": ""
  },
  "remark-popLife": "人壽POP窗",
  "popLife": {
    "P0001": "提醒您",
    "P0002": "您即將離開國泰產險網站，前往國泰人壽網站，是否繼續?",
    "P0003": "取消",
    "P0004": "繼續"
  },
  "remark-A02": "footer",
  "A02": {
    "A0001": "服務據點",
    "A0002": "寫信諮詢",
    "A0003": "台灣國泰產險",
    "A0004": "越南國泰人壽",
    "A0005": "網站地圖",
    "A0006": "信息安全政策",
    "A0007": "隱私權",
    "A0008": "為了向您提供更專業和快速的服務，國泰越南將通過使用 Cookie 記錄並存儲您對本網站的訪問。 使用本網站，即表示您同意 Cookies 的信息收集。",
    "A0009": "同意"
  },
  "remark-A03": "選單",
  "A03": {
    "L0001": "旅平險",
    "L0002": "強制險",
    "L0003": "線上投保",
    "L0004": "保單",
    "L0005": "理賠",
    "L0006": "Hi, 你在找什麼呢？",
    "L0007": "搜尋結果",
    "L0008": "看更多"
  },
  "remark-A04": "index",
  "A04": {
    "L0001": "個人商品",
    "L0001_": {
      "s001": "汽車險",
      "s002": "機車險",
      "s003": "旅遊險",
      "s004": "意外保險",
      "s005": "房屋保險"
    },
    "L0002": "企業商品",
    "L0002_": {
      "s001": "工程保險",
      "s002": "責任保險",
      "s003": "財產保險",
      "s004": "運輸保險",
      "s005": "更多投保方案"
    },
    "L0003": "保戶服務",
    "L0003_": {
      "s001": "我的訂單",
      "s002": "我的保單",
      "s003": "保單變更",
      "s004": "我要續保",
      "s005": "強制險查詢"
    },
    "L0004": "關於國泰",
    "L0004_": {
      "s001": "公司介紹",
      "s002": "關於國泰",
      "s003": "A04.L0004_.s003-tw((未使用))",
      "s004": "A04.L0004_.s004-tw(未使用)",
      "s005": "A04.L0004_.s005-tw(未使用)",
      "s006": "A04.L0004_.s006-tw(未使用)",
      "s007": "A04.L0004_.s007-tw(未使用)"
    },
    "L0005": "A04.L0005-tw(未使用)",
    "L0006": "A04.L0006-tw(未使用)",
    "L0007": "A04.L0007-tw(未使用)",
    "L0008": "保單專區",
    "L0013": "理賠專區",
    "L0014": "我要理賠",
    "L0015": "理賠進度查詢",
    "L0016": "保戶管理",
    "L0016_": {
      "s001": "保戶資料維護",
      "s002": "密碼變更",
      "s003": "開通線下保單資訊"
    },
    "L0017": "幫助中心",
    "L0018": "最新消息",
    "L0019": "職缺總覽",
    "L0020": "前往保戶服務中心",
    "L0021": "輸入想找尋的內容，讓國泰產險來幫你",
    "L0022": "大家都在找",
    "L0023": "輸入想找尋的內容，讓國泰產險來幫你",
    "L0024": "大家都在保",
    "L0024_": {
      "travel": {
        "s001": "旅遊險",
        "s002": "旅遊險說明(待提供)",
        "s003": "全線上流程",
        "s004": "出發前6小時投保，立即收到保單",
        "s005": "輕鬆購買",
        "s006": "6週-80歲皆可投保，保障最高32億元",
        "s007": "理賠簡單",
        "s008": "班機延誤主動通知，便捷線上理賠"
      },
      "car": {
        "s001": "汽車險",
        "s002": "汽車險說明(待提供)",
        "s003": "線上投保",
        "s004": "隨時隨地3分鐘完成投保",
        "s005": "全面範圍",
        "s006": "提供給所有客戶，為您和家人預防交通事故風險",
        "s007": "及時通知",
        "s008": "保險到期前主動通知，為您提供持續的交通保護"
      },
      "motor": {
        "s001": "機車險",
        "s002": "機車險說明(待提供)",
        "s003": "自動流程",
        "s004": "線上自動完成過程，在家獲得證書",
        "s005": "產品獨特",
        "s006": "5.5萬起，爲您守護交通安全",
        "s007": "專屬服務",
        "s008": "快速的客服處理，簡單的理賠流程"
      }
    },
    "L0025": "了解詳情",
    "L0026": "各種生活 安心保障",
    "L0026_": {
      "card1": {
        "s001": "意外險",
        "s002": "幫你減輕對醫療費用的擔心，以及在發生意外事故時的財務壓力"
      },
      "card2": {
        "s001": "房屋保險",
        "s002": "幫助您保護房屋免受火災，爆炸，雷暴等風險"
      }
    },
    "L0027": "比想象中更方便",
    "L0028": "前往保戶服務中心",
    "L0029": "查看所有保單資訊",
    "L0030": "快速方便，線上追蹤理賠進度。 尤其是航班延誤，線上即可完成理賠。",
    "L0031": "保險到期提醒，線上續保且有很多優惠活動",
    "L0032": "1.查看保單：",
    "L0033": "2.理賠：",
    "L0034": "3.續保：",
    "L0035": "聰明投保，無後顧之憂",
    "L0035_": {
      "s001": "國外旅遊受傷怎麼辦",
      "s002": "班機延誤怎麼辦",
      "s003": "發生車禍怎麼辦",
      "s004": "火災怎麽辦",
      "s005": "意外受傷怎麽辦"
    },
    "L0036": "A04.L0036-tw(未使用)",
    "L0037": "選擇國泰，",
    "L0038": "你最堅強的後盾",
    "L0039": "年給越南客戶提供服務",
    "L0040": "服務人員",
    "L0041": "得到國泰保護的家庭",
    "L0042": "幫助中心",
    "L0043": "保戶服務中心",
    "L0044": "立即購買",
    "L0045": "我要",
    "L0046": "續保",
    "L0047": "我要",
    "L0048": "理賠",
    "L0049": "我的",
    "L0050": "會員",
    "L0051": "登出",
    "L0052": "登入",
    "L0099": "A04.L0099-tw(未使用)"
  },
  "remark-A05": "sitemap",
  "A05": {
    "A0001": "網站地圖",
    "A0002": "幫助中心",
    "A0003": "常見問題",
    "A0003_": {
      "s001": "個人商品",
      "s002": "商業商品"
    },
    "A0004": "表單下載",
    "A0004_": {
      "s001": "個人商品",
      "s002": "商業商品"
    },
    "A0005": "寫信諮詢",
    "A0005_": {
      "s001": "寫信諮詢"
    },
    "A0006": "個人商品",
    "A0007": "網路投保",
    "A0007_": {
      "s001": "汽車險",
      "s002": "機車險",
      "s003": "旅遊險"
    },
    "A0008": "商品介紹",
    "A0008_": {
      "s001": "汽車險",
      "s002": "機車險",
      "s003": "旅遊險",
      "s004": "房屋保險",
      "s005": "意外保險"
    },
    "A0009": "企業商品",
    "A0010": "商品介紹",
    "A0010_": {
      "s001": "工程保險",
      "s002": "責任保險",
      "s003": "財產保險",
      "s004": "運輸保險"
    },
    "A0011": "保戶服務",
    "A0012": "保戶服務中心",
    "A0012_": {
      "s001": "保戶服務中心",
      "s002": "重要通知"
    },
    "A0013": "保單專區",
    "A0013_": {
      "s001": "我的訂單",
      "s002": "我的保單",
      "s003": "保單變更",
      "s004": "我要續保",
      "s005": "強制險查詢"
    },
    "A0014": "理賠專區",
    "A0014_": {
      "s001": "我要理賠",
      "s002": "理賠進度查詢"
    },
    "A0015": "保戶管理",
    "A0015_": {
      "s001": "保護資料維護",
      "s002": "密碼變更",
      "s003": "開通線下保單資訊"
    },
    "A0016": "關於國泰",
    "A0016_": {
      "s001": "公司介紹",
      "s002": "職缺總覽",
      "s003": "最新消息",
      "s004": "職缺總覽"
    },
    "A0017": "其他",
    "A0018": "集團網站",
    "A0018_": {
      "s001": "國泰產險台灣",
      "s002": "國泰人壽越南"
    },
    "A0019": "相關連結",
    "A0019_": {
      "s001": "訊息安全政策",
      "s002": "隱私政策"
    }
  },
  "remark-B011": "login-pop",
  "B011": {
    "title": {
      "B0001": "登入後繼續"
    },
    "content": {
      "B0001": "帳號",
      "B0002": "請輸入電子信箱",
      "B0003": "請輸入正確E-mail",
      "B0004": "密碼",
      "B0005": "請輸入密碼",
      "B0006": "帳號或密碼無效，請確認後再登入",
      "B0007": "登入",
      "B0008": "立即註冊",
      "B0009": "或",
      "B0010": "忘記密碼?"
    }
  },
  "remark-B012A": "login/find-account",
  "B012A": {
    "title": {
      "B0001": "找回密碼"
    },
    "content": {
      "B0001": "身分證字號",
      "B0002": "請輸入9或12碼身分證字號",
      "B0003": "生日",
      "B0004": "請輸入出生年月日",
      "B0005": "請填寫生日",
      "B0006": "資料錯誤，請確認後再輸入",
      "B0007": "下一步",
      "B0008": "聯絡客服",
      "B0009": "請輸入9碼或12碼數字"
    }
  },
  "remark-B014A": "login/otp-verification",
  "B014A": {
    "title": {
      "B0001": "OTP驗證"
    },
    "content": {
      "B0001": "已發送驗證碼至您的",
      "B0002": "手機號碼",
      "B0003": "電子信箱",
      "B0004": "請輸入驗證碼",
      "B0005": "在",
      "B0006": "內有效",
      "B0007": "已失效",
      "B0008": "驗證碼錯誤",
      "B0009": "秒後可重新發送",
      "B0010": "重新發送",
      "B0011": "沒有收到驗證碼",
      "B0012": "B01.B014A.CB0012-TW(未使用)",
      "B0013": "B01.B014A.CB0013-TW(未使用)",
      "B0014": "沒有收到驗證碼",
      "B0015": "若您無法成功收到簡訊/驗證信，",
      "B0016": "請聯絡客服,服務時間 08:30 - 17:30",
      "B0017": "B01.B014A.CB0017-TW(未使用)",
      "B0018": "B01.B014A.CB0018-TW(未使用)",
      "B0019": "我知道了",
      "B0020": "聯絡客服",
      "B0021": ""
    }
  },
  "remark-B015A": "login/change-password",
  "B015A": {
    "title": {
      "B0001": "設定新密碼"
    },
    "content": {
      "B0001": "帳號",
      "B0002": "輸入新密碼",
      "B0003": "需為8-12位英數字",
      "B0004": "再次輸入新密碼",
      "B0005": "完成設定",
      "B0006": "請輸入正確格式的密碼",
      "B0007": "密碼不一致",
      "B0008": "註冊完成",
      "B0009": "您已註冊會員，請登入即可享有服務。",
      "B0010": "我知道了"
    }
  },
  "remark-B023": "third-bind",
  "B023": {
    "title": {
      "B0001": "登入後繼續"
    },
    "content": {
      "B0001": "您的身份证已註冊過會員，<br />請登入後繼續。",
      "B0002": "帳號",
      "B0003": "請輸入電子信箱",
      "B0004": "密碼",
      "B0005": "請輸入密碼",
      "B0006": "忘記密碼?",
      "B0007": "帳號或密碼無效，請確認後再登入",
      "B0008": "ID與帳號不吻合，請確認後再登入",
      "B0009": "登入",
      "B0010": "或",
      "B0011": "請輸入正確E-mail"
    }
  },
  "remark-B041A": "login",
  "B041A": {
    "title": {
      "B0001": "會員登入"
    },
    "content": {
      "B0001": "帳號",
      "B0002": "請輸入電子信箱",
      "B0003": "請輸入正確E-mail",
      "B0004": "密碼",
      "B0005": "8~12字元",
      "B0006": "帳號或密碼無效，請確認後再登入",
      "B0007": "登入",
      "B0008": "立即註冊",
      "B0009": "或",
      "B0010": "忘記密碼?",
      "B0011": "我不是會員，繼續購買",
      "B0012": "帳號已鎖定",
      "B0013": "請點選「忘記密碼」重新設定",
      "B0014": "忘記密碼"
    },
    "L0001": "此 ID 為會員，請登入後繼續購買"
  },
  "B042": {
    "pop": {
      "B0001": "完成設定",
      "B0002": "密碼已變更，請使用新密碼登入。"
    }
  },
  "remark-B051A": "login/register-id",
  "B051A": {
    "title": {
      "B0001": "會員註冊"
    },
    "content": {
      "B0001": "身分證字號",
      "B0002": "請輸入9或12碼身分證字號",
      "B0003": "註冊",
      "B0004": "已經是國泰產險會員？",
      "B0005": "登入",
      "B0006": "請輸入9碼或12碼數字",
      "B0007": "已註冊會員",
      "B0008": "此身份證已註冊會員，請直接登入。",
      "B0009": "回登入頁"
    }
  },
  "remark-B053": "login/id-verification",
  "B053": {
    "title": {
      "B0001": "身分驗證"
    },
    "content": {
      "B0001": "身分證字號",
      "B0002": "請輸入9或12碼身分證字號",
      "B0003": "進行驗證"
    }
  },
  "remark-B054": "login/register-data",
  "B054": {
    "title": {
      "B0001": "會員資料"
    },
    "content": {
      "B0001": "姓名",
      "B0002": "請輸入姓名",
      "B0003": "身分證字號",
      "B0004": "B05.B054.CB0004-TW111(待確認)",
      "B0005": "生日",
      "B0006": "請輸入出生年月日",
      "B0007": "請填寫生日",
      "B0008": "性別",
      "B0009": "男",
      "B0010": "女",
      "B0011": "手機",
      "B0012": "請輸入手機號碼",
      "B0013": "E-mail",
      "B0014": "請輸入E-mail",
      "B0015": "此信箱已註冊過會員",
      "B0016": "以此建立會員帳號",
      "B0017": "聯絡地址",
      "B0018": "請輸入詳細地址",
      "B0019": "下一步",
      "B0020": "B05.B054.CB0020-TW(待確認)",
      "B0021": "請輸入正確手機號碼",
      "B0022": "請輸入正確E-mail",
      "B0023": "請輸入正確姓名",
      "B0024": "請輸入英文或越文姓名",
      "B0026": "請輸入省分",
      "B0027": "請輸入郡縣"
    }
  },
  "remark-B055": "login/bind-account",
  "B055": {
    "title": {
      "B0001": "帳號綁定"
    },
    "content": {
      "B0001": "您已是國泰產險線上會員，請輸入國泰產險帳號與密碼，與第三方帳號進行綁定。",
      "B0002": "帳號",
      "B0003": "請輸入帳號",
      "B0004": "密碼",
      "B0005": "請輸入密碼",
      "B0006": "忘記密碼?",
      "B0007": "帳號或密碼無效，請確認後再登入",
      "B0008": "ID與帳號不吻合，請確認後再登入",
      "B0009": "確認綁定",
      "B0010": "格式錯誤",
      "B0011": "綁定完成",
      "B0012": "成功將您的會員綁定第三方帳號。"
    }
  },
  "remark-C01": "online-insurance",
  "C01": {
    "C0001": "網路投保",
    "C0002": "全部",
    "C0003": "汽車險",
    "C0003_": {
      "card1": {
        "s001": "讓你放心開車",
        "s002": "保障最高20億/人/案",
        "s003": "汽車險"
      }
    },
    "C0004": "機車險",
    "C0004_": {
      "card1": {
        "s001": "與您一起安全地騎車",
        "s002": "保障最高3000萬/人/案"
      }
    },
    "C0005": "旅遊險",
    "C0005_": {
      "card1": {
        "s001": "國內",
        "s002": "保護您去全國各地旅遊",
        "s003": "保障最高2億"
      },
      "card2": {
        "s001": "國外",
        "s002": "與您同行探索世界",
        "s003": "保障最高32億"
      }
    },
    "C0006": "立即投保"
  },

  "remark-C02": "online-insurance/project-trial-travel",
  "C02": {
    "step1": {
      "L0001": "試算",
      "L0002": "個人資料",
      "L0003": "付款",
      "L0004": "旅遊資訊",
      "L0005": "旅遊地區",
      "L0006": "請選擇",
      "L0007": "請選擇日期",
      "L0008": "保險期間",
      "L0009": "請選擇時間",
      "L0010": "投保人數",
      "L0011": "請選擇人數",
      "L0012": "方案選擇",
      "L0013": "被保人訊息",
      "L0014": "被保人",
      "L0015": "新增資料",
      "L0016": "快速理賠 (選填)",
      "L0017": "若當發⽣班機延誤時，保險公司將主動提醒你申請理賠。",
      "L0018": "去程資訊",
      "L0019": "轉機資訊",
      "L0020": "回程資訊",
      "L0021": "我已閱讀和同意",
      "L0022": "《保險規則》",
      "L0023": "《隱私政策》",
      "L0024": "合計保費",
      "L0025": "填寫個人資料",
      "L0026": "立即付款",
      "L0027": "《保密政策》",
      "L0029": "熱門",
      "L0030": "無法投保",
      "L0031": "選擇付款方式",
      "L0032": "國際卡",
      "L0033": "國內簽帳金融卡",
      "L0034": "電子錢包",
      "L0035": "請選擇保險期間",
      "L0036": "元",
      "L0037": "共投保",
      "L0038": "天，保障至",
      "L0039": "止",
      "L0040": "請選擇旅遊地點",
      "L0041": "試算",
      "L0042": "我承諾並保證所提供的信息是完整和準確的，並對所提供的信息承擔全部責任。"
    },
    "v1": {
      "L0001": "保障詳情",
      "L0002": "銀",
      "L0003": "意外死亡/意外失能",
      "L0004": "2億",
      "L0005": "被保險人因意外事故或突發疾病死亡，國泰將全額賠償。<br /><br />備註：銀方案僅包含意外事故死亡。",
      "L0006": "意外失能",
      "L0007": "2億",
      "L0008": "如果被保險人因意外事故導致人身傷害，國泰將按照傷殘保險率表中的規定支付保險金額",
      "L0099": "C03.v1.L0099"
    },
    "t44": {
      "L0001": "保障詳情",
      "L0002": "金",
      "L0003": "意外死亡/意外失能",
      "L0004": "1億",
      "L0005": "被保險人因意外事故或突發疾病死亡，國泰將全額賠償。<br /><br />備註：銀方案僅包含意外事故死亡。",
      "L0006": "意外失能",
      "L0007": "1億",
      "L0008": "如果被保險人因意外事故導致人身傷害，國泰將按照傷殘保險率表中的規定支付保險金額",
      "L0009": "航班延誤",
      "L0010": "100萬",
      "L0011": "因客觀條件和原因，被保險人的航班比計劃起飛時間晚2小時或更長時間，國泰將進行賠償（最多只能要求賠償2個航班）",
      "L0012": "航班延誤時間",
      "L0013": "次",
      "L0014": "120-179 分鐘",
      "L0015": "350,000",
      "L0016": "180-239 分鐘",
      "L0017": "525,000",
      "L0018": "240-299 分鐘",
      "L0019": "700,000",
      "L0020": "300-359 分鐘",
      "L0021": "875,000",
      "L0022": "360 分鐘以上",
      "L0023": "1,000,000",
      "L0024": "航班取消/返回/改降",
      "L0025": "50萬",
      "L0026": "保險期間內，班機無法飛行導致航班取消、返回原起飛機場、或無法於目的地機場降落改降其他機場，國泰將進行賠償（僅允許1次賠償）",
      "L0027": "行李損失",
      "L0028": "500萬",
      "L0029": "被保人因意外造成個人行李與隨身物品遺失或損壞，依規定金額由國泰提供賠償。",
      "L0030": "行李延誤",
      "L0031": "50萬",
      "L0032": "被保人因航空公司導致航班延誤，且託運行李較航班實際抵達時間延誤達6小時以上，國泰將提供賠償。（僅允許1次賠償）。",
      "L0033": "緊急醫療後送",
      "L0034": "5000萬",
      "L0035": "被保險人於保險期間生病或意外受傷，需要緊急治療，且發生地點無足夠醫療設施，在國泰同意的前提下，支付緊急醫療運輸的所有合理費用。",
      "L0036": "遺體運回",
      "L0037": "5000萬",
      "L0038": "被保人若因意外事故或突然生病死亡，國泰將支付合理費用，將其遺體運回親屬指定越南境內的地點。",
      "L0039": "恐怖主義",
      "L0040": "5000萬",
      "L0041": "在越南境內因恐怖主義造成的死亡或傷害，國泰將支付賠償",
      "L0099": "C03.t44.L0099"
    },
    "t44v1": {
      "L0001": "保障詳情",
      "L0002": "鑽石",
      "L0003": "意外死亡/意外失能",
      "L0004": "2億",
      "L0005": "被保險人因意外事故或突發疾病死亡，國泰將全額賠償。<br /><br />備註：銀方案僅包含意外事故死亡。",
      "L0006": "意外失能",
      "L0007": "2億",
      "L0008": "如果被保險人因意外事故導致人身傷害，國泰將按照傷殘保險率表中的規定支付保險金額",
      "L0009": "航班延誤",
      "L0010": "100萬",
      "L0011": "因客觀條件和原因，被保險人的航班比計劃起飛時間晚2小時或更長時間，國泰將進行賠償（最多只能要求賠償2個航班）",
      "L0012": "航班延誤時間",
      "L0013": "次",
      "L0014": "120-179 分鐘",
      "L0015": "分鐘",
      "L0016": "分鐘",
      "L0017": "360 分鐘以上",
      "L0018": "航班取消/返回/改降",
      "L0019": "保險期間內，班機無法飛行導致航班取消、返回原起飛機場、或無法於目的地機場降落改降其他機場，國泰將進行賠償（僅允許1次賠償）",
      "L0020": "行李損失",
      "L0021": "500萬",
      "L0022": "被保人因意外造成個人行李與隨身物品遺失或損壞，依規定金額由國泰提供賠償。",
      "L0023": "行李延誤",
      "L0024": "被保人因航空公司導致航班延誤，且託運行李較航班實際抵達時間延誤達6小時以上，國泰將提供賠償。（僅允許1次賠償）。",
      "L0025": "緊急醫療後送",
      "L0026": "1億",
      "L0027": "被保險人於保險期間生病或意外受傷，需要緊急治療，且發生地點無足夠醫療設施，在國泰同意的前提下，支付緊急醫療運輸的所有合理費用。",
      "L0028": "遺體運回",
      "L0029": "被保人若因意外事故或突然生病死亡，國泰將支付合理費用，將其遺體運回親屬指定越南境內的地點。",
      "L0030": "恐怖主義",
      "L0031": "在越南境內因恐怖主義造成的死亡或傷害，國泰將支付賠償",
      "L0032": "350,000",
      "L0033": "525,000",
      "L0034": "700,000",
      "L0035": "875,000",
      "L0036": "1,000,000",
      "L0037": "50萬",
      "L0038": "50萬",
      "L0099": "C03.t44v1.L0099"
    },
    "plancard": {
      "L0001": "意外死亡/意外失能",
      "L0002": "意外失能",
      "L0003": "航班延誤",
      "L0004": "航班取消/返回/改降",
      "L0005": "行李損失",
      "L0006": "行李延誤",
      "L0007": "緊急醫療後送",
      "L0008": "遺體運回",
      "L0009": "恐怖主義",
      "L0010": "銀",
      "L0011": "每天",
      "L0012": "百萬",
      "L0013": "選擇方案",
      "L0014": "金",
      "L0015": "每天",
      "L0016": "選擇方案",
      "L0017": "查看保障詳情",
      "L0018": "鑽石",
      "L0019": "每天",
      "L0020": "選擇方案",
      "L0021": "查看保障詳情",
      "L0022": "選擇方案",
      "L0023": "意外死亡",
      "L0024": "銀",
      "L0025": "每天",
      "L0026": "意外失能",
      "L0027": "航班延誤",
      "L0028": "航班取消/返回/改降",
      "L0029": "行李損失",
      "L0030": "行李延誤",
      "L0031": "緊急醫療後送",
      "L0032": "遺體運回",
      "L0033": "恐怖主義",
      "L0034": "意外死亡",
      "L0035": "意外失能",
      "L0036": "航班延誤",
      "L0037": "航班取消/返回/改降",
      "L0038": "行李損失",
      "L0039": "行李延誤",
      "L0040": "緊急醫療後送",
      "L0041": "遺體運回",
      "L0042": "恐怖主義",
      "L0043": "鑽石",
      "L0044": "每天",
      "L0045": "意外死亡",
      "L0046": "意外失能",
      "L0047": "航班延誤",
      "L0048": "航班取消/返回/改降",
      "L0049": "行李損失",
      "L0050": "行李延誤",
      "L0051": "緊急醫療後送",
      "L0052": "遺體運回",
      "L0053": "恐怖主義",
      "L0054": "條款下載",
      "L0055": "立即購買",
      "L0056": "/日",
      "L0063": "* 價格為每人",
      "L0099": "C03.plancard.L0099"
    },
    "insured": {
      "L0001": "新增被保人資料",
      "L0002": "同購買人",
      "L0003": "姓名",
      "L0004": "請輸入姓名",
      "L0005": "身分證字號",
      "L0006": "請輸入身分證字號",
      "L0007": "生日",
      "L0008": "請輸入生日",
      "L0009": "保存",
      "L0010": "此保障金額僅承作6周~80歲",
      "L0011": "性別",
      "L0012": "男",
      "L0013": "女",
      "L0014": "此保障金額僅承作18-70歲，請選擇其他金額",
      "L0015": "被保人重複，請輸入正確被保險人"
    },
    "fastpair": {
      "L0001": "新增去程資料",
      "L0002": "班機編號",
      "L0003": "班機日期",
      "L0004": "請輸入日期",
      "L0005": "起飛機場",
      "L0006": "請選擇",
      "L0007": "請輸入機場代號、城市、國家",
      "L0008": "降落機場",
      "L0009": "請輸入機場代號、城市、國家",
      "L0010": "保存",
      "L0011": "新增回程資料",
      "L0012": "新增轉機資料",
      "L0013": "請選擇理賠項目",
      "L0014": "理賠項目",
      "L0015": "新增其他航班",
      "L0016": "或",
      "L0017": "請選擇理賠航班",
      "L0018": "請輸入班機編號"
    },
    "plancard_out": {
      "L0001": "意外死亡/意外失能",
      "L0002": "意外失能",
      "L0003": "醫療費用",
      "L0004": "交通延誤",
      "L0005": "旅程取消",
      "L0006": "行李延遲",
      "L0007": "行李遺失",
      "L0008": "旅遊文件遗失",
      "L0009": "金錢遺失",
      "L0010": "銀",
      "L0011": "每天",
      "L0012": "百萬",
      "L0013": "選擇方案",
      "L0014": "金",
      "L0015": "每天",
      "L0016": "選擇方案",
      "L0017": "查看保障詳情",
      "L0018": "鑽石",
      "L0019": "每天",
      "L0020": "選擇方案",
      "L0021": "查看保障詳情",
      "L0022": "選擇方案",
      "L0023": "意外死亡",
      "L0024": "銀",
      "L0025": "每天",
      "L0026": "意外失能",
      "L0027": "醫療費用",
      "L0028": "交通延誤",
      "L0029": "旅程取消",
      "L0030": "行李延遲",
      "L0031": "行李遺失",
      "L0032": "旅遊文件遺失",
      "L0033": "金錢遺失",
      "L0034": "意外死亡",
      "L0035": "意外失能",
      "L0036": "醫療費用",
      "L0037": "交通延誤",
      "L0038": "旅程取消",
      "L0039": "行李延遲",
      "L0040": "行李遺失",
      "L0041": "旅遊文件遺失",
      "L0042": "金錢遺失",
      "L0043": "鑽石",
      "L0044": "每天",
      "L0045": "意外死亡",
      "L0046": "意外失能",
      "L0047": "醫療費用",
      "L0048": "交通延誤",
      "L0049": "旅程取消",
      "L0050": "行李延遲",
      "L0051": "行李遺失",
      "L0052": "旅遊文件遺失",
      "L0053": "金錢遺失",
      "L0054": "第三責任",
      "L0055": "支持緊急旅行",
      "L0056": "額外的旅行和住宿费用",
      "L0057": "旅行協助服務",
      "L0058": "第三責任",
      "L0059": "支持緊急旅行",
      "L0060": "额外的旅行和住宿費用",
      "L0061": "旅行協助服務",
      "L0062": "條款下載",
      "L0063": "* 價格為每人",
      "L0064": "立即購買",
      "L0065": "/日",
      "L0066": "/次",
      "L0099": "C03.plancard_out.L0099"
    },
    "W1": {
      "L0001": "保障詳情",
      "L0002": "銀",
      "L0003": "意外死亡/意外失能",
      "L0004": "4億",
      "L0005": "被保險人因意外事故死亡，國泰將全額賠償",
      "L0006": "意外失能",
      "L0007": "4億",
      "L0008": "如果被保險人因意外事故受傷，國泰將按照傷害率表中的規定賠償",
      "L0009": "醫療費用",
      "L0010": "2億",
      "L0011": "若在海外發生意外受傷或突發疾病，由國泰賠償相關當地醫療費用。",
      "L0012": "交通延誤",
      "L0013": "250萬",
      "L0014": "因客觀條件和原因造成被保險人的航班或任何運輸方式延遲4小時以上，國泰將給予賠償。(最多賠償2個航班)",
      "L0015": "旅程取消",
      "L0016": "600萬",
      "L0017": "被保險人遭遇嚴重事故、作為證人、收到法院或法庭傳票、或必須接受隔離進行強制檢疫時，導致旅程取消，將賠償被保險人旅行社的訂金、更換其他交通工具的差額、額外的餐飲住宿費用，合計不超過指定的賠償額（僅支付1次）",
      "L0018": "行李延遲",
      "L0019": "400萬",
      "L0020": "被保險人到達目的地國家後，因延誤、錯誤轉送或未交付，導致行李延誤超過六個小時，國泰根據被保險人緊急購買必需衛生用品或衣物的發票提供賠償。（最多2次，且每次不超過規定的賠償額）",
      "L0021": "行李遺失",
      "L0022": "1000萬",
      "L0023": "國泰根據客戶向航空公司或警方申報，賠償被保險人保險期間內因意外、搶劫、盜竊或因運輸公司疏失造成的個人行李損失。",
      "L0024": "旅遊文件遺失",
      "L0025": "600萬",
      "L0026": "被保險人旅行期間因竊盜或意外遺失護照、簽證或機票時，國泰將根據重新申請的實際費用、申請過程中因交通和住宿而產生的額外費用、以及因證件遺失導致需重新購買機票的費用進行理賠，理賠金額不超過規定的賠償額。",
      "L0027": "金錢遺失",
      "L0028": "400萬",
      "L0029": "國泰根據客戶向警方的申報，賠償保險期間內被保險人因事故、搶劫、盜竊或因運輸公司的疏失，造成隨身攜帶的金錢損失，不超過規定的賠償額。",
      "L0030": "第三責任",
      "L0031": "2億",
      "L0032": "當被保險人對第三方造成死亡、傷害、財物損失或損壞時，依法應負賠償責任，國泰向被保險人支付不超過規定的賠償額。",
      "L0033": "支持緊急旅行",
      "L0034": "10億",
      "L0035": "國泰將根據實際費用進行賠償，不超過規定的賠償額：<br />1. 被保險人住院期間無人照顧孩子（18歲以下），需把孩子送回國。<br /> 2. 喪葬費。<br />3.如果被保險人連續住院超過7天或在國外死亡，則為探親提供一張往返機票。<br />4. 緊急醫療運輸；發生事故時被保險人的遣返費用。",
      "L0036": "額外的旅行和住宿費用",
      "L0037": "1000萬",
      "L0038": "國泰將承擔被保險人返回原籍國的經濟艙旅行的額外費用，以及被保險人或同行陪同者（也包括在本保單中）產生的額外住宿費用（如果此類費用是由承保的殘疾引起的） 必須對被保險人進行醫療，最高可獲得詳細的最大賠付。",
      "L0039": "旅行協助服務",
      "L0040": "",
      "L0041": "旅行資訊，大使館、翻譯、律師事務所、醫療服務等資訊。"
    },
    "W2": {
      "L0001": "保障詳情",
      "L0002": "金",
      "L0003": "意外死亡/意外失能",
      "L0004": "16億",
      "L0005": "被保險人因意外事故死亡，國泰將全額賠償",
      "L0006": "意外失能",
      "L0007": "16億",
      "L0008": "如果被保險人因意外事故受傷，國泰將按照傷害率表中的規定賠償",
      "L0009": "醫療費用",
      "L0010": "10億",
      "L0011": "若在海外發生意外受傷或突發疾病，由國泰賠償相關當地醫療費用。",
      "L0012": "交通延誤",
      "L0013": "250萬",
      "L0014": "因客觀條件和原因造成被保險人的航班或任何運輸方式延遲4小時以上，國泰將給予賠償。(最多賠償2個航班)",
      "L0015": "旅程取消",
      "L0016": "600萬",
      "L0017": "被保險人遭遇嚴重事故、作為證人、收到法院或法庭傳票、或必須接受隔離進行強制檢疫時，導致旅程取消，將賠償被保險人旅行社的訂金、更換其他交通工具的差額、額外的餐飲住宿費用，合計不超過指定的賠償額（僅支付1次）",
      "L0018": "行李延遲",
      "L0019": "400萬",
      "L0020": "被保險人到達目的地國家後，因延誤、錯誤轉送或未交付，導致行李延誤超過六個小時，國泰根據被保險人緊急購買必需衛生用品或衣物的發票提供賠償。（最多2次，且每次不超過規定的賠償額）",
      "L0021": "行李遺失",
      "L0022": "1000萬",
      "L0023": "國泰根據客戶向航空公司或警方申報，賠償被保險人保險期間內因意外、搶劫、盜竊或因運輸公司疏失造成的個人行李損失。",
      "L0024": "旅遊文件遺失",
      "L0025": "600萬",
      "L0026": "被保險人旅行期間因竊盜或意外遺失護照、簽證或機票時，國泰將根據重新申請的實際費用、申請過程中因交通和住宿而產生的額外費用、以及因證件遺失導致需重新購買機票的費用進行理賠，理賠金額不超過規定的賠償額。",
      "L0027": "金錢遺失",
      "L0028": "400萬",
      "L0029": "國泰根據客戶向警方的申報，賠償保險期間內被保險人因事故、搶劫、盜竊或因運輸公司的疏失，造成隨身攜帶的金錢損失，不超過規定的賠償額。",
      "L0030": "第三責任",
      "L0031": "2億",
      "L0032": "當被保險人對第三方造成死亡、傷害、財物損失或損壞時，依法應負賠償責任，國泰向被保險人支付不超過規定的賠償額。",
      "L0033": "支持緊急旅行",
      "L0034": "10億",
      "L0035": "國泰將根據實際費用進行賠償，不超過規定的賠償額：<br />1. 被保險人住院期間無人照顧孩子（18歲以下），需把孩子送回國。<br /> 2. 喪葬費。<br />3.如果被保險人連續住院超過7天或在國外死亡，則為探親提供一張往返機票。<br />4. 緊急醫療運輸；發生事故時被保險人的遣返費用。",
      "L0036": "額外的旅行和住宿費用",
      "L0037": "1000萬",
      "L0038": "國泰將承擔被保險人返回原籍國的經濟艙旅行的額外費用，以及被保險人或同行陪同者（也包括在本保單中）產生的額外住宿費用（如果此類費用是由承保的殘疾引起的） 必須對被保險人進行醫療，最高可獲得詳細的最大賠付。",
      "L0039": "旅行協助服務",
      "L0040": "",
      "L0041": "旅行資訊，大使館、翻譯、律師事務所、醫療服務等資訊。"
    },
    "W7": {
      "L0001": "保障詳情",
      "L0002": "鑽石",
      "L0003": "意外死亡/意外失能",
      "L0004": "32億",
      "L0005": "被保險人因意外事故死亡，國泰將全額賠償",
      "L0006": "意外失能",
      "L0007": "32億",
      "L0008": "如果被保險人因意外事故受傷，國泰將按照傷害率表中的規定賠償",
      "L0009": "醫療費用",
      "L0010": "16億",
      "L0011": "若在海外發生意外受傷或突發疾病，由國泰賠償相關當地醫療費用。",
      "L0012": "交通延誤",
      "L0013": "250萬",
      "L0014": "因客觀條件和原因造成被保險人的航班或任何運輸方式延遲4小時以上，國泰將給予賠償。(最多賠償2個航班)",
      "L0015": "旅程取消",
      "L0016": "600萬",
      "L0017": "被保險人遭遇嚴重事故、作為證人、收到法院或法庭傳票、或必須接受隔離進行強制檢疫時，導致旅程取消，將賠償被保險人旅行社的訂金、更換其他交通工具的差額、額外的餐飲住宿費用，合計不超過指定的賠償額（僅支付1次）",
      "L0018": "行李延遲",
      "L0019": "400萬",
      "L0020": "被保險人到達目的地國家後，因延誤、錯誤轉送或未交付，導致行李延誤超過六個小時，國泰根據被保險人緊急購買必需衛生用品或衣物的發票提供賠償。（最多2次，且每次不超過規定的賠償額）",
      "L0021": "行李遺失",
      "L0022": "1000萬",
      "L0023": "國泰根據客戶向航空公司或警方申報，賠償被保險人保險期間內因意外、搶劫、盜竊或因運輸公司疏失造成的個人行李損失。",
      "L0024": "旅遊文件遺失",
      "L0025": "600萬",
      "L0026": "被保險人旅行期間因竊盜或意外遺失護照、簽證或機票時，國泰將根據重新申請的實際費用、申請過程中因交通和住宿而產生的額外費用、以及因證件遺失導致需重新購買機票的費用進行理賠，理賠金額不超過規定的賠償額。",
      "L0027": "金錢遺失",
      "L0028": "400萬",
      "L0029": "國泰根據客戶向警方的申報，賠償保險期間內被保險人因事故、搶劫、盜竊或因運輸公司的疏失，造成隨身攜帶的金錢損失，不超過規定的賠償額。",
      "L0030": "第三責任",
      "L0031": "2億",
      "L0032": "當被保險人對第三方造成死亡、傷害、財物損失或損壞時，依法應負賠償責任，國泰向被保險人支付不超過規定的賠償額。",
      "L0033": "支持緊急旅行",
      "L0034": "10億",
      "L0035": "國泰將根據實際費用進行賠償，不超過規定的賠償額：<br />1. 被保險人住院期間無人照顧孩子（18歲以下），需把孩子送回國。<br /> 2. 喪葬費。<br />3.如果被保險人連續住院超過7天或在國外死亡，則為探親提供一張往返機票。<br />4. 緊急醫療運輸；發生事故時被保險人的遣返費用。",
      "L0036": "額外的旅行和住宿費用",
      "L0037": "1000萬",
      "L0038": "國泰將承擔被保險人返回原籍國的經濟艙旅行的額外費用，以及被保險人或同行陪同者（也包括在本保單中）產生的額外住宿費用（如果此類費用是由承保的殘疾引起的） 必須對被保險人進行醫療，最高可獲得詳細的最大賠付。",
      "L0039": "旅行協助服務",
      "L0040": "",
      "L0041": "旅行資訊，大使館、翻譯、律師事務所、醫療服務等資訊。"
    },
    "pop": {
      "L0001": "付款失敗",
      "L0002": "付款尚未成功，請重新選擇其他方式付款",
      "L0003": "若有任何問題請聯絡客服, 服務時間 08:30 - 17:30",
      "L0004": "投保失敗",
      "L0005": "您的訂單尚未完成，請洽客服人員。",
      "L0006": "您需於保險起始時間6hr前完成付款，請重新調整保險期間",
      "L0007": "付款處理中，請勿關閉視窗"
    },
    "step3": {
      "L0001": "您已完成會員註冊，未來可登錄查詢保單及使用會員特有服務。",
      "L0002": "保單已寄到以下信箱，請至信箱內確認：",
      "L0003": "保單將於",
      "L0004": "天內寄到您的地址。",
      "L0005": "返回首頁",
      "L0006": "強制險",
      "L0007": "在發生事故的情況下，強制性保險會由國泰代表車主賠償因車主的車輛對受傷方造成的身體，生命和財產損失。<br />*商用車保障對象包含我方車輛乘客",
      "L0008": "付款中，請勿關閉視窗",
      "L0009": "訂單已成立，付款失敗，請重新到訂單操作付款",
      "T9999": "登入後繼續"
    }
  },

  "remark-C03": "online-insurance/project-trial-car",
  "C03": {
    "step1": {
      "L0001": "車種",
      "L0002": "類型",
      "L0003": "座位數",
      "L0004": "保險期間",
      "L0005": "C03.step1.L0005(未使用)",
      "L0006": "強制險",
      "L0007": "國泰將賠償駕駛及車上乘客，在行駛及上下車期間發生車禍對身體和生命造成的傷害。",
      "L0008": "請選擇保險期間",
      "L0009": "C03.step1.L0009(未使用)",
      "L0010": "C03.step1.L0010(未使用)",
      "L0011": "C03.step1.L0011(未使用)",
      "L0012": "試算",
      "L0013": "車輛資訊",
      "L0014": "個人資料",
      "L0015": "付款",
      "L0016": "基本方案",
      "L0017": "強制險",
      "L0018": "人損",
      "L0019": "最高1.5億",
      "L0020": "財產損失",
      "L0021": "最高1億越南盾",
      "L0023": "最高 $ 億",
      "L0024": "合計保費",
      "L0025": "填寫個人資料",
      "L0026": "保障人數",
      "L0027": "保額",
      "L0028": "駕駛/乘客險",
      "L0029": "加購方案",
      "L0030": "請選擇車種",
      "L0031": "請選擇類型",
      "L0032": "請選擇日期",
      "L0033": "萬",
      "L0034": "請輸入座位數",
      "L0035": "試算",
      "L0036": "1年",
      "L0037": "1.5年",
      "L0038": "2年",
      "L0039": "2.5年",
      "L0040": "3年",
      "L0041": "自訂",
      "L0099": "C03.step1.L0099(未使用)"
    },
    "step2": {
      "L0001": "投保人訊息",
      "L0002": "身分證字號",
      "L0003": "姓名",
      "L0004": "生日",
      "L0005": "性別",
      "L0006": "手機",
      "L0007": "請輸入手機號碼",
      "L0008": "請輸入E-mail",
      "L0009": "以此建立會員帳號",
      "L0010": "請輸入生日",
      "L0011": "聯絡地址",
      "L0012": "C03.step2.L0012(未使用)",
      "L0013": "若為紙本保單，將以此地址寄送。",
      "L0014": "同步更新會員資料",
      "L0015": "車輛登記訊息",
      "L0016": "車主姓名",
      "L0017": "請輸入車主姓名",
      "L0018": "同投保人",
      "L0019": "車牌號碼",
      "L0020": "請輸入車牌號碼",
      "L0021": "車身號碼",
      "L0022": "請輸入車身號碼",
      "L0023": "引擎號碼",
      "L0024": "請輸入引擎號碼",
      "L0025": "選擇付款方式",
      "L0026": "我已閱讀和同意",
      "L0027": "《保險規則》",
      "L0028": "《隱私政策》",
      "L0029": "《保密政策》",
      "L0030": "合計保費",
      "L0031": "立即付款",
      "L0032": "詳細地址",
      "L0033": "國際卡",
      "L0034": "國內簽帳金融卡",
      "L0035": "電子錢包",
      "L0036": "您需於保險起始時間0.5hr前完成付款，請重新調整保險期間",
      "L0037": "10M",
      "L0038": "30M",
      "L0039": "50M",
      "L0040": "100M",
      "L0041": "200M",
      "L0042": "《投保規則-強制險》",
      "L0043": "《投保規則-任意險》",
      "L0044": "我承諾並保證所提供的信息是完整和準確的，並對所提供的信息承擔全部責任。"
    },
    "step3": {
      "L0001": "您已完成國泰會員註冊，未來可用FB/Google/帳號登入會員查詢保單及申請理賠。",
      "L0002": "保單已寄到以下信箱，請至信箱內確認：",
      "L0003": "保單將於",
      "L0004": "天內寄到您的地址。",
      "L0005": "我的訂單",
      "L0006": "強制險",
      "L0007": "在發生事故的情況下，強制性保險會由國泰代表車主賠償因車主的車輛對受傷方造成的身體，生命和財產損失<br>*商用車保障對象包含我方車輛乘客",
      "L0008": "付款中，請勿關閉視窗",
      "L0009": "駕駛/乘客險",
      "L0010": "國泰將賠償駕駛及車上乘客，在行駛及上下車期間發生車禍對身體和生命造成的傷害。",
      "L0011": "訂單已成立，付款失敗，請重新到訂單操作付款",
      "T9999": "登入後繼續",
      "L0099": "付款中，請勿關閉視窗"
    },
    "extip": {
      "L0001": "請輸入省分",
      "L0002": "請輸入郡縣"
    }
  },

  "remark-C04": "online-insurance/project-trial-motor",
  "C04": {
    "remark": "project-trial-motor",
    "step1": {
      "C0001": "試算",
      "C0002": "個人資料",
      "C0003": "付款",
      "C0004": "車輛資訊",
      "C0004_": {
        "s001": "類型",
        "s002": "請選擇險種",
        "s003": "保險期間",
        "s004": "請選擇保險期間",
        "s005": "請選擇車種"
      },
      "C0005": "試算",
      "C0006": "基本方案",
      "C0007": "強制險",
      "C0007_": {
        "s001": "人損",
        "s002": "最高1.5億",
        "s003": "失能",
        "s004": "最高1.5億",
        "s005": "財產損失",
        "s006": "最高0.5億越南盾"
      },
      "C0008": "加購方案",
      "C0008_": {
        "s001": "駕駛/乘客險",
        "s002": "保額",
        "s003": "請選擇險種",
        "s004": "人損",
        "s005": "最高 $ 億",
        "s006": "失能",
        "s007": "最高20億"
      },
      "C0009": "合計保費",
      "C0010": "元",
      "C0011": "填寫個人資料",
      "C0012": "請選擇車種"
    },
    "step2": {
      "C0001": "投保人訊息",
      "C0002": "身分證字號",
      "C0003": "姓名",
      "C0004": "生日",
      "C0005": "性別",
      "C0005_": {
        "s001": "男",
        "s002": "女"
      },
      "C0006": "手機",
      "C0007": "請輸入手機號碼",
      "C0008": "E-mail",
      "C0009": "請輸入E-mail",
      "C0010": "以此建立會員帳號",
      "C0011": "聯絡地址",
      "C0012": "詳細地址",
      "C0013": "若為紙本保單，將以此地址寄送。",
      "C0014": "同步更新會員資料",
      "C0015": "車輛登記訊息",
      "C0016": "車主姓名",
      "C0017": "請輸入車主姓名",
      "C0018": "同投保人",
      "C0019": "車牌號碼",
      "C0020": "有",
      "C0021": "請輸入車牌號碼",
      "C0022": "無",
      "C0023": "請輸入車身號碼",
      "C0024": "選擇付款方式",
      "C0025": "國際卡",
      "C0026": "國內簽帳金融卡",
      "C0027": "電子錢包",
      "C0028": "我已閱讀和同意",
      "C0029": "《保險規則》",
      "C0030": "《隱私政策》",
      "C0031": "《保密政策》",
      "C0032": "立即付款",
      "C0033": "5M",
      "C0034": "10M",
      "C0035": "20M",
      "C0036": "30M",
      "C0037": "《投保規則-強制險》",
      "C0038": "《投保規則-任意險》",
      "C0039": "我承諾並保證所提供的信息是完整和準確的，並對所提供的信息承擔全部責任。"
    },
    "step3": {
      "C0001": "您已完成國泰會員註冊，未來可用FB/Google/帳號登入會員查詢保單及申請理賠。",
      "C0002": "保單已寄到以下信箱，請至信箱內確認：",
      "C0003": "sample@email.com",
      "C0004": "保單將於",
      "C0005": "天內寄到您的地址。",
      "C0006": "返回首頁",
      "C0007": "強制險",
      "C0008": "國家規定必須買的保險，出現事故時強制險將對第三方(被車主的車造成傷害的那一方)的傷害，生命和財產損失提供賠償。",
      "C0009": "國泰將賠償駕駛及車內乘客在意外發生時造成的身體及生命損失。",
      "C0010": "付款中，請勿關閉視窗",
      "C0011": "駕駛/乘客保險",
      "T9999": "登入後繼續"
    }
  },

  "remark-D01": "online-insurance/car-insurance",
  "D01": {
    "D0001": "跟國泰 開車安全，開車自信，有責任地開車",
    "D0002": "強制險",
    "D0002_": {
      "s001": "在發生事故的情況下，強制性保險會由國泰代表車主賠償因車主的車輛對受傷方造成的身體，生命和財產損失。<br />*商用車保障對象包含我方車輛乘客"
    },
    "D0003": "下班回去的路上， 不小心撞到對面車，導致他人摔倒，顱腦外傷或永久性傷害。",
    "D0003_": {
      "s001": "人損",
      "s003": "1.5億",
      "s004": "越南盾/人",
      "s005": "失能：",
      "s006": "最高",
      "s007": "1.5億",
      "s008": "/人",
      "s009": "財產損失",
      "s010": "最高",
      "s011": "1億",
      "s012": "越南盾/車/次"
    },
    "D0004": "駕駛/乘客保險",
    "D0004_": {
      "s001": "國泰將賠償駕駛及車上乘客，在行駛及上下車期間發生車禍對身體和生命造成的傷害。"
    },
    "D0005": "卡車撞到到我車上，導致翻車，我的脖子也被骨折。",
    "D0005_": {
      "s001": "人損",
      "s002": "20億",
      "s003": "越南盾/人",
      "s004": "失能：",
      "s005": "高達",
      "s006": "20億",
      "s007": "/人"
    },
    "D0006": "車體險",
    "D0006_": {
      "s001": "萬一發生撞車事故，造成損壞或被盗，國泰會承擔维修和損壞的費用，讓您放心使用汽車。"
    },
    "D0007": "下雨時在道路上行駛時，突然被路邊的樹壓到在汽車車身上，導致汽車完全損壞。 ",
    "D0007_": {
      "s001": "車輛損失",
      "s002": "100%",
      "s003": "(事故時候的價值）",
      "s004": "損失"
    },
    "D0008": "第三責任險",
    "D0008_": {
      "s001": "針對強制險賠償金額不足進行補強。 當事故發生時，除強制險的理賠外，根据保險金額，國泰會對第三方(被車主的車造成傷害的那一方)的生命和財產損失進行理賠。"
    },
    "D0009": "在公路上行駛時，它以相同的方向撞擊寶馬，導致寶馬的尾燈和尾部折斷。",
    "D0009_": {
      "s001": "人損",
      "s002": "2億",
      "s003": "失能：",
      "s004": "高達",
      "s005": "2億",
      "s006": "財產損失",
      "s007": "高達",
      "s008": "10億",
      "s009": "每一事件：",
      "s010": "上限",
      "s011": "越南盾/人",
      "s012": "越南盾/次",
      "s013": "80億",
      "s014": "元"
    },
    "D0010": "貨物任意險",
    "D0010_": {
      "s001": "發生意外事件時，幫助您擔負起損壞貨物的憂慮。"
    },
    "D0011": "送貨途中因路面濕滑導致車輛翻覆，車上的酒瓶全部破碎嚴重受損。 ",
    "D0011_": {
      "s001": "貨物損失",
      "s002": "3千萬",
      "s003": " /噸"
    },
    "D0012": "保障範圍",
    "D0012_": {
      "s001": "強制險",
      "s002": "駕駛乘客險",
      "s003": "車體險",
      "s004": "第三人責任險",
      "s005": "貨物任意險"
    },
    "D0013": "我方車輛",
    "D0013_": {
      "s001": "駕駛/<br />乘客",
      "s002": "車體",
      "s003": "貨物",
      "s004": "駕駛/<br />乘客",
      "s005": "車體"
    },
    "D0014": "對方車輛",
    "D0015": "車外第三人",
    "D0016": "熱門的保險方案",
    "D0017": "試算條件：<br />1.自用的5人座汽車<br /> 2.以Toyota Vios 新車 1500cc (價值6億)為例 ",
    "D0018": "提供您經濟實惠的保障，發生交通事故時保障您和他人的生命安全。",
    "D0019": "強制險",
    "D0019_": {
      "s001": "人損：最高1.5億越南盾/每人<br />財產損失：高達一億越南盾/次"
    },
    "D0020": "駕駛/乘客險",
    "D0020_": {
      "s001": "人損：最高2億越南盾/每人"
    },
    "D0021": "每次用車的保障",
    "D0022": "適合用車頻率較高的通勤族，可降低因事故造成的巨大財務損失。",
    "D0023": "強制險",
    "D0023_": {
      "s001": "人損：最高1億越南盾/每人<br />財產損失：高達一億越南盾/次"
    },
    "D0024": "駕駛/乘客險",
    "D0024_": {
      "s001": "人損：最高2億越南盾/每人"
    },
    "D0025": "第三人責任險",
    "D0025_": {
      "s001": "人損：最高1億越南盾/每人<br />財產損失：最高1億越南盾/次"
    },
    "D0026": "全方位的保障",
    "D0027": "提供完整的保障，除車上駕駛乘客外、亦包含因交通事故造成的財務損失，以及自身車輛維修的費用。",
    "D0028": "強制險",
    "D0028_": {
      "s001": "人損：最高1.5億越南盾/每人<br />財產損失：高達一億越南盾/次"
    },
    "D0029": "駕駛/乘客險",
    "D0029_": {
      "s001": "人損：最高2億越南盾/每人"
    },
    "D0030": "第三人責任險",
    "D0030_": {
      "s001": "人損：最高1億越南盾/每人<br />財產損失：最高1億越南盾/次"
    },
    "D0031": "車體險",
    "D0031_": {
      "s001": "車輛損失：100%損失<br />（事故時候的價值）"
    },
    "D0032": "đ",
    "D0033": "保費合計",
    "D0034": "立即購買",
    "D0035": "聯繫客服",
    "D0036": "投保",
    "D0037": "步驟",
    "D0038": "試算",
    "D0038_": {
      "s001": "輸入車的資訊，選擇合適方案即可試算保費"
    },
    "D0039": "個人資料",
    "D0039_": {
      "s001": "填寫購買人資訊+行照資料"
    },
    "D0040": "付款",
    "D0040_": {
      "s001": "選擇付款方式，目前提供國際卡、國內debit card、電子錢包"
    },
    "D0041": "遇到問題的基本步驟：",
    "D0042": "限制損失，並立即通知有關部門和國泰",
    "D0042_": {
      "s001": "營救受傷人員（如有），請立即致電115尋求幫助。同時保持現場，立即致電當局和國泰以獲取指示和協調。"
    },
    "D0043": "收集文件並通知國泰",
    "D0043_": {
      "s001": "詳細拍攝事故現場（正面，背面，側面），在事故發生起5天內向國泰提出理賠申請。"
    },
    "D0044": "將理賠文件寄給國泰",
    "D0044_": {
      "s001": "準備",
      "s002": "理賠所需文件",
      "s003": "，並且在最早的時間寄給國泰。"
    },
    "D0045": "等待國泰的反饋",
    "D0045_": {
      "s001": "國泰將盡快給您答覆，您也可以在會員中心查詢",
      "s002": "理賠進度。"
    },
    "D0046": "常見問題",
    "D0047": "汽車要有什麽險種才不被罰款？",
    "D0047_": {
      "s001": "除了車輛登記証與駕照，駕駛人須帶生效中的汽車强制險憑證。若沒有或沒帶强制險憑證，可被罰款400.000-600.000越南盾。"
    },
    "D0048": "保險期間的計算方式是什麼？",
    "D0048_": {
      "s001": "保險證書的有效時間指定於保險證書上，但要在車主全額支付保費之後才開始生效。期限規定於保險證書上，最短為一年，最長跟定期技術安全檢定和環境保護期限相符。 在這種情況下，檢定期限必須超過一年。"
    },
    "D0049": "透過國泰產險官網線上購買保險後，我將如何獲得保險單？",
    "D0049_": {
      "s001": "投保完成之後，當日保單將發送至您所登記的電子郵箱地址。<br />若需要保單正本，請聯係國泰產險客服，我們會將保單發到您的地址。"
    },
    "D0060": "經濟實惠",
    "D0061": "營業車強制險保障範圍包含乘客"
  },

  "remark-D02": "online-insurance/motor-insurance",
  "D02": {
    "title": {
      "D0001": "國泰讓您安心騎車",
      "D0002": "保障範圍",
      "D0003": "熱門的保險方案",
      "D0004": "投保",
      "D0005": "步驟",
      "D0006": "遇到問題的基本步驟：",
      "D0007": "常見問題"
    },
    "content": {
      "D0001": "強制險",
      "D0002": "國家規定必須買的保險，出現事故時強制險將對第三方(被車主的車造成傷害的那一方)的傷害，生命和財產損失提供賠償。",
      "D0003": "騎車撞到走路的人，讓此人死亡。",
      "D0003_": {
        "S0001": "人損",
        "S0002": "1.5",
        "S0003": "D02.D02.CD0003.03-tw",
        "S0004": "億",
        "S0005": "傷害：",
        "S0006": "高達",
        "S0007": "1.5億",
        "S0008": "D02.D02.CD0003.08-tw",
        "S0009": "財產損失",
        "S0010": "高達",
        "S0011": "0.5",
        "S0012": "億"
      },
      "D0004": "駕駛/乘客保險",
      "D0005": "國泰將賠償駕駛及車內乘客在意外發生時造成的身體及生命損失。",
      "D0006": "等紅綠燈時，突然被後面的汽車撞到，導致我和坐在後面的親人被嚴重傷害。",
      "D0006_": {
        "S0001": "人損",
        "S0002": "D02.D02.CD0006.02-tw(待確認)",
        "S0003": "0.3",
        "S0004": "億",
        "S0005": "傷害",
        "S0006": "高達",
        "S0007": "0.3億",
        "S0008": "/人"
      },
      "D0007": "車體險",
      "D0008": "保護摩托車因意外造成的物理損壞, 比如撞車，交通事故，火災，爆炸，盜竊...等",
      "D0009": "房屋遭小偷闖入，被偷走價值一億的新購入機車。",
      "D0009_": {
        "S0001": "車輛損失",
        "S0002": "D02.D02.CD0009.02-tw(待確認)",
        "S0003": "100％",
        "S0004": "損失"
      },
      "D0010": "第三方任意險",
      "D0011": "為第三方 (被車主的車造成傷害的那一方)造成事故時提供賠償。",
      "D0012": "在濕滑的道路上駕駛，撞到騎自行車，讓騎乘的人永久癱瘓。",
      "D0012_": {
        "S0001": "人損",
        "S0002": "D02.D02.CD0012.02-tw(待確認)",
        "S0003": "2",
        "S0004": "億",
        "S0005": "傷害：",
        "S0006": "高達",
        "S0007": "2億",
        "S0008": "D02.D02.CD0012.08-tw(待確認)",
        "S0009": "財產損失",
        "S0010": "高達",
        "S0011": "10",
        "S0012": "億"
      },
      "D0013": "強制險",
      "D0014": "駕駛乘客險",
      "D0015": "車體險",
      "D0016": "第三人責任險",
      "D0017": "我方車輛",
      "D0018": "對方車輛",
      "D0019": "車外第三人",
      "D0020": "(未使用)",
      "D0021": "(未使用)",
      "D0022": "駕駛/<br />乘客",
      "D0023": "車體",
      "D0024": "駕駛/<br />乘客",
      "D0025": "D02.D02.CD0025-tw(未使用)",
      "D0026": "車體",
      "D0027": "試算條件：",
      "D0028": "1.排氣量超過50 cc的機車",
      "D0029": "以SH 新車 300 cc (價值~2.8億)為例  ",
      "D0030": "đ",
      "D0031": "保費合計",
      "D0032": "立即購買",
      "D0033": "保費合計",
      "D0034": "聯繫客服",
      "D0035": "負責任的駕駛",
      "D0036": "使用車輛時的基本保障組合，適用於想選擇既經濟又優質保險產品的客戶。",
      "D0037": "強制險",
      "D0038": "人損：最高每人1.5億越南盾<br />財產損失：最高5000萬越南盾/車",
      "D0039": "駕駛/乘客險",
      "D0040": "人損：最高3000萬/人/案",
      "D0041": "安全駕駛，放心騎車",
      "D0042": "進階的保障組合，可賠償交通事故造成我方和對方的損失，適用於用車頻率較高的車主。",
      "D0043": "強制險",
      "D0044": "人損：最高每人1億越南盾<br />財產損失：最高5000萬越南盾/車",
      "D0045": "駕駛/乘客險",
      "D0046": "人損：最高3000萬/人/案",
      "D0047": "第三人責任險",
      "D0048": "人損：最高1億/每人<br />財產損失：最高1億/車",
      "D0049": "豪華車的全面保障",
      "D0050": "全面的保障，發生交通事故時不僅可對人提供保障，還可以保障車輛（例如火災，爆炸，盜竊等）。適用於擁有豪華車的車主。",
      "D0051": "強制險",
      "D0052": "人損：最高每人1.5億越南盾 <br />財產損失：最高5000萬越南盾/車",
      "D0053": "駕駛/乘客險",
      "D0054": "人損：最高3000萬/人/案",
      "D0055": "第三人責任險",
      "D0056": "人損：最高1億越南盾/每人<br />財產損失：最高1億越南盾/車",
      "D0057": "車體險",
      "D0058": "財產損失（保險車輛）：高達2.8億",
      "D0059": "試算",
      "D0060": "輸入車的資訊，選擇合適方案即可試算保費",
      "D0061": "個人資料",
      "D0062": "填寫購買人資訊+行照資料",
      "D0063": "付款",
      "D0064": "選擇付款方式，目前提供國際卡、國內debit card、電子錢包",
      "D0065": "輸入車的資訊，選擇合適方案即可試算保費",
      "D0066": "填寫購買人資訊+行照資料",
      "D0067": "選擇付款方式，目前提供國際卡、國內debit card、電子錢包",
      "D0068": "限制損失，並立即通知有關部門和國泰",
      "D0068_": {
        "s001": "營救受傷人員（如有），請立即致電115尋求幫助。同時保持現場，立即致電當局和國泰以獲取指示和協調。"
      },
      "D0069": "收集文件並通知國泰",
      "D0069_": {
        "s001": "詳細拍攝事故現場（正面，背面，側面），在事故發生起5天內向國泰提出理賠申請。"
      },
      "D0070": "將理賠文件寄給國泰",
      "D0070_": {
        "s001": "準備",
        "s002": "理賠所需文件",
        "s003": "，並且在最早的時間寄給國泰。"
      },
      "D0071": "等待國泰的反饋",
      "D0071_": {
        "s001": "國泰將盡快給您答覆，您也可以在會員中心查詢<a href='/member/claim/search'>理賠進度</a>。"
      },
      "D0072": "常見問題",
      "D0073": "機車要有什麽險種才不被罰款？",
      "D0073_": {
        "s001": "除了車輛登記証與駕照，駕駛人須帶生效中的機車强制險憑證。若沒有或沒帶强制險憑證，可被罰款100.000-200.000越南盾。"
      },
      "D0074": "保險期間的計算方式是什麼？",
      "D0074_": {
        "s001": "保險證書的有效時間指定於保險證書上，但要在車主全額支付保費之後才開始生效。期限規定於保險證書上，最短為一年，最長為三年。"
      },
      "D0075": "透過國泰產險官網線上購買保險後，我將如何獲得保險單？",
      "D0075_": {
        "s001": "投保完成之後，當日保單將發送至您所登記的電子郵箱地址。<br />若需要保單正本，請聯係國泰產險客服，我們會將保單發到您的地址。"
      },
      "D0081": "更多問題"
    }
  },

  "remark-D03": "online-insurance/travel-insurance",
  "D03": {
    "N0001": "國內旅遊",
    "N0002": "國外旅遊",
    "N0003": "無論您去哪旅行，國泰都會陪伴你",
    "N0004": "意外死亡/意外失能",
    "N0004_": {
      "s001": "如果被保險人因意外事故導致人身傷害，國泰將按照傷殘保險率表中的規定支付保險金額。",
      "s002": "旅遊期間發生車禍，造成永久性傷害。",
      "s003": "2億"
    },
    "N0005": "航班延誤",
    "N0005_": {
      "s001": "被保險人於保險期間生病或意外受傷，需要緊急治療，且發生地點無足夠醫療設施，在國泰同意的前提下，支付緊急醫療運輸的所有合理費用。",
      "s002": "飛機延誤超過6小時，影響後續行程。",
      "s003": "100萬"
    },
    "N0006": "航班取消/返回/改降",
    "N0006_": {
      "s001": "保險期間內，班機無法飛行導致航班取消、返回原起飛機場、或無法於目的地機場降落改降其他機場，國泰將進行賠償。（僅允許1次賠償）",
      "s002": "航班因颱風取消，改買次日班機。",
      "s003": "50萬"
    },
    "N0007": "行李延誤",
    "N0007_": {
      "s001": "被保人因航空公司導致航班延誤，且託運行李較航班實際抵達時間延誤達6小時以上，國泰將提供賠償。（僅允許1次賠償）",
      "s002": "行李延誤10小時，臨時購買衣物及生活用品。",
      "s003": "50萬"
    },
    "N0008": "緊急醫療後送",
    "N0008_": {
      "s001": "被保險人於保險期間生病或意外受傷，需要緊急治療，且發生地點無足夠醫療設施，在國泰同意的前提下，支付緊急醫療運輸的所有合理費用。",
      "s002": "在山上旅行時發生的嚴重事故, 要緊急送到醫院急診。",
      "s003": "1億"
    },
    "N0009": "國外旅遊， 有國泰無憂愁",
    "N0010": "意外死亡/意外失能",
    "N0010_": {
      "s001": "如果被保險人因意外事故導致人身傷害，國泰將按照傷殘保險率表中的規定支付保險金額。",
      "s002": "旅遊期間發生車禍，造成永久性傷害。",
      "s003": "32億"
    },
    "N0011": "醫療費用",
    "N0011_": {
      "s001": "若在海外發生意外受傷或突發疾病，由國泰賠償相關當地醫療費用。",
      "s002": "因交通事故在法國住院。",
      "s003": "16億"
    },
    "N0012": "旅遊文件遺失",
    "N0012_": {
      "s001": "被保險人旅行期間因竊盜或意外遺失護照、簽證或機票時，國泰將根據重新申請的實際費用、申請過程中因交通和住宿而產生的額外費用、以及因證件遺失導致需重新購買機票的費用進行理賠，理賠金額不超過規定的賠償額。",
      "s002": "身份證件(含護照)被偷，重新申辦的費用。",
      "s003": "600萬"
    },
    "N0013": "交通延誤",
    "N0013_": {
      "s001": "因客觀條件和原因造成被保險人的航班或任何運輸方式延遲4小時以上，國泰將給予賠償。(最多賠償2個航班)",
      "s002": "由於天氣惡劣，飛機延遲了4個小時。",
      "s003": "250萬"
    },
    "N0014": "第三責任",
    "N0014_": {
      "s001": "當被保險人對第三方造成死亡、傷害、財物損失或損壞時，依法應負賠償責任，國泰向被保險人支付不超過規定的賠償額。",
      "s002": "孩子不小心損壞了博物館裡的畫，必須向博物館賠償 (造成損害的人必須自己支付200萬盾，國泰將賠償剩餘的金額）",
      "s003": "2億"
    },
    "N0041": "保障範圍",
    "N0042": "投保<span>3</span>步驟",
    "N0043": "試算",
    "N0044": "輸入旅遊資訊，選擇合適方案即可試算保費",
    "N0045": "個人資料",
    "N0046": "填寫投保人、被保險人資料",
    "N0047": "付款",
    "N0047_": {
      "s001": "選擇付款方式，目前提供國際卡、國內debit card、電子錢包"
    },
    "N0048": "保障詳情",
    "N0049": "400000000",
    "N0050": "200000000",
    "N0051": "25000000",
    "N0052": "6000000",
    "N0053": "4000000",
    "N0054": "10000000",
    "N0055": "1600000000",
    "N0056": "100000000",
    "N0057": "3200000000",
    "N0058": "條款下載",
    "N0059": "班機延誤，快速線上理賠",
    "N0060": "網路投保",
    "N0061": "投保時輸入航班資訊。",
    "N0062": "符合理賠資格",
    "N0063": "延誤時間符合保險規定。",
    "N0064": "網站申請",
    "N0065": "上傳登機證, 輸入銀行帳戶。",
    "N0066": "完成理賠",
    "N0067": "確認資料無誤，立即撥款",
    "N0068": "理賠進度查詢。",
    "N0069": "常見問題",
    "N0076": "最多",
    "N0077": "元",
    "N0078": "緊急醫療後送",
    "N0079": "被保險人於保險期間生病或意外受傷，需要緊急治療，且發生地點無足夠醫療設施，在國泰同意的前提下，支付緊急醫療運輸的所有合理費用。",
    "N0080": "在山上旅行時發生的嚴重事故, 要緊急送到醫院急診",
    "N0081": "最多1億",
    "N0082": "我要提前多久購買旅游險？",
    "N0082_": {
      "s001": "保險時間開始前6小時以上就可以投保。"
    },
    "N0083": "購買保險後，請問我會如何收到保單？",
    "N0083_": {
      "s001": "投保完成之後，當日保單將發送至您所登記的電子郵箱地址。<br />若需要保單正本，請聯係國泰產險客服，我們會將保單發到您的地址。"
    },
    "N0084": "請問發生意外時，可以進行線上理賠嗎？",
    "N0084_": {
      "s001": "國泰產險目前線上理賠服務，僅適用於班機延誤、班機取消、改降其他機場相關事故的航班。你可以按<a href=\"/member/claim\">這裡</a>進行線上理賠申請。"
    },
    "N0085": "* 價格為每人/每日"
  },

  "remark-D04": "online-insurance/injury-insurance",
  "D04": {
    "D0001": "國泰是您防範意外的後盾",
    "D0002": "意外事故",
    "D0002_": {
      "s001": "在街上行走時，被盆景砸中了的頭部，導致腦部受傷"
    },
    "D0003": "疾病",
    "D0003_": {
      "s001": "闌尾炎，需要緊急手術"
    },
    "D0004": "懷孕必須剖腹產",
    "D0004_": {
      "s001": "孕婦有胎兒衰竭，必須立即進行緊急剖腹產"
    },
    "D0005": "保障範圍",
    "D0006": "全球人身意外傷害保險",
    "D0006_": {
      "s001": "全球24/7覆蓋",
      "s002": "在全球範圍內，如果被保險人因意外導致死亡，人身傷害或醫療費用，國泰將給予賠償。"
    },
    "D0007": "越南人身意外傷害保險",
    "D0007_": {
      "s001": "越南境內24/7覆蓋",
      "s002": "如果發生意外導致死亡或人身傷害，國泰將對被保險人給予賠償。<br />保險範圍涵蓋被保險人因救人、保護國家和人民財產以及參與打擊違法行為引起的事故。"
    },
    "D0008": "國內醫療險(可自由組合)",
    "D0008_": {
      "s001": "包括不同的承保範圍，保險購買者可以自行選擇2項或3項的保障內容，以滿足不同的需求。",
      "s002": "根據您選擇的組合，國泰將賠償對應的損失：<br />範圍A：因疾病（非意外導致）死亡的保險。<br />範圍B：意外死亡或人身傷害保險。<br />範圍C：疾病和生育保險，需要住院治療或手術。"
    },
    "D0009": "個人意外保險",
    "D0009_": {
      "s001": "因意外事故導致死亡、受傷或失踪的保險 ",
      "s002": "被保險人由於意外事故；合法的自衛行動、挽救人民、挽救國家和人民財產；參加反抗犯法行为而遭受人身傷害或死亡。或在保險期間，法院宣布被保險人意外失踪。"
    },
    "D0010": "常見問題",
    "D0011": "誰可以買個人傷害險？",
    "D0011_": {
      "s001": "傷害保險指的是人身傷害或死亡的保險。<br />購買對象為越南公民，或是在越南工作、學習和生活的外國人，年齡在01至70歲之間（個人傷害保險）或年齡在01至65歲之間（2019-2020年新越南型醫療傷害保險）或年齡在18至65歲之間（一般型傷害保險（全球）/ 越南型傷害保險），以下情況不受理購買傷害險：<br />+ 患有精神疾病，麻風病，癌症的人<br />+ 殘廢程度50%以上或永久殘障的人<br />+ 正在治療疾病或受傷的人<br />+ 在保險規則中有規定的其他特定情況"
    },
    "D0012": "請問如何購買傷害險？保險費如何計算？",
    "D0012_": {
      "s001": "請直接<a href=\"/help?type=info\">聯繫</a>國泰產險，以獲得有關產品套餐和相應保費的詳細信息。"
    },
    "D0013": "如果不幸發生意外，誰可以申請理賠？",
    "D0013_": {
      "s001": "向國泰產險申請理賠時，被保險人本人、被保險人的法定繼承人或授權人可申請理賠，並且必須提交理賠申請表和所需文件，可在<a href=\"/member/claim/introduction?intro=assets/json/contract/language_variable/contract03.json#introductionDescription\">此處</a>找到。"
    }
  },
  "remark-D05": "online-insurance/house-insurance",
  "D05": {
    "L0001": "國泰讓房屋永遠是您的避風港",
    "L0002": "疏忽大火",
    "L0002_": {
      "s001": "被保險人出門前忘了關掉瓦斯爐，導致廚房起火。家裡的烤箱、微波爐、冰箱、電視等都受到嚴重損壞。"
    },
    "L0003": "暴風雨和洪水摧毀了房屋和財產",
    "L0003_": {
      "s001": "12級颱風導致房屋損失，屋內所有財產被淹沒在洪水中。"
    },
    "L0004": "小偷闖入房屋",
    "L0004_": {
      "s001": "夜晚小偷撬門闖入房屋，偷走筆電，電腦和手機。"
    },
    "L0005": "保障範圍",
    "L0006": "住宅險",
    "L0007": "國泰賠償被保險人房屋、財產、貨物遭受的損害，以及被保險人造成第三方損害必須賠償的責任和所有訴訟費用。",
    "L0008": "國泰賠償被保險人因下列原因造成的屋內財產、貨物損失: 火災, 爆炸; 雷電，雷暴，暴風雨; 洪水；水箱、儲水設備或水管的水破裂或溢出；碰撞；搶劫。同時，國泰亦會補償損失後額外產生的費用：清潔、消防、租房費用。<br />此外，因被保險人生活或業務目的而造成當第三方死亡、受傷、失能或財產損失，國泰也將給予賠償(包含訴訟費用)。",
    "L0009": "常見問題",
    "L0010": "請問住宅險可以保障什麼內容？",
    "L0010_": {
      "s001": "根據客戶的預算，可以選擇以下商品<br />- 僅保障房屋本身。<br />- 保障房屋及房屋內的財產。"
    },
    "L0011": "請問可以在哪裡購買住宅險？保險費如何計算？",
    "L0011_": {
      "s001": "若要購買住宅保險，請直接<a href=\"/help?type=info\">聯繫</a>國泰產險，即可獲得完整的商品及保費資訊。"
    },
    "L0012": "住宅險的理賠權益為何？",
    "L0012_": {
      "s001": "住宅險的理賠權益如下：<br />- 理賠金額為替換或回復成相同類型財產的成本，但低於原本購買房屋時的價值<br />- 如果責任限額大於或等於財產的實際價值，國泰產險將根據實際損壞情形進行理賠<br />- 如果責任限額小於財產的實際價值，國泰產險將以最高額度理賠"
    },
    "L0020": "更多問題"
  },
  "remark-E01": "online-insurance/engineering-insurance",
  "E01": {
    "E0001": "所有建設的盾牌",
    "E0002": "起重機倒塌",
    "E0003": "15米高的起重機與吊臂意外倒塌，壓壞地面上的挖土機以及工程圍欄。",
    "E0004": "安裝設備疏失",
    "E0005": "機械和設備由於粗心的組裝而遭到損壞，維修費好幾億越盾。",
    "E0006": "機器爆炸",
    "E0007": "當機器爆炸時，損壞不僅限於機器本身，甚至還包括第三者的財產。",
    "E0008": "國泰保護建築工程，機器和設備",
    "E0009": "強制性工程險",
    "E0010": "根據政府規定建築工程的強制性保險。",
    "E0011": "補償被保險人因意外和不可預見的風險而造成的機器損壞或損失。",
    "E0012": "營造工程險",
    "E0013": "對施工直接相關的損失補償。",
    "E0014": "賠償因意外，不可預期風險，如: 火災、爆炸、暴風雨、盜竊等，對保險建築項目造成的損害和損失，以及施工過程中造成的第三方損失，包括訴訟費用。",
    "E0015": "安裝工程險",
    "E0016": "與施工直接相關的損失補償。",
    "E0017": "對被保險建築工程因意外或不可預期之風險，例如火災，爆炸，風暴，盜竊等而損壞或損失提供賠償。賠償包括安裝期間的第三方損失和訴訟費用。",
    "E0018": "營建機具險",
    "E0019": "對於施工期間的機械設備因意外和不可預期的風險造成損壞或損失提供賠償。",
    "E0020": "賠償施工現場運行中的被保險營建機具，因意外和不可預期的風險，如火災，爆炸，暴風雨，盜竊等造成的損壞或損失。",
    "E0021": "機器損壞險",
    "E0022": "賠償因意外和不可預見的風險而造成操作機械的損壞和損失。",
    "E0023": "國泰將對因（操作錯誤，原料品質缺陷，設計錯誤，安裝錯誤，安裝技術水平不足，粗心，鍋爐缺水，爆炸，短路，暴風雨...等其他保障範圍內的原因）造成機械損壞或損失，向被保險人進行賠償現金、維修、或更換設備。",
    "E0024": "常見問題",
    "E0025": "請問如何購買工程保險？",
    "E0025_": {
      "s001": "請直接<a href=\"/help?type=info\">聯繫</a>國泰產險，以獲取有關產品和相應保費的詳細咨詢"
    },
    "E0026": "誰需要購買工程險？",
    "E0026_": {
      "s001": "需購買工程險的對象：<br />1.投資者，承包商<br />2.諮詢承包商<br />3.施工承包商<br />4.與建設投資活動有關的其他機構，組織和個人"
    },
    "E0027": "請問理賠文件包括哪些？",
    "E0027_": {
      "s001": "工程險的理賠文件，<a href=\"/member/claim/introduction?intro=assets/json/contract/language_variable/contract05.json#introductionDescription\">查看</a>。",
      "E0028": "Nếu không may xảy ra tổn thất, khách hàng phải làm gì?",
      "E0028_": {
        "s001": "Khi xảy ra tổn thất cần thực hiện ngay các biện pháp như sau：<br />a. Thông báo ngay cho Cảnh sát PCCC, Công an, Chính quyền sở tại và Cathay<br />b. Thực hiện những biện pháp nhằm ngăn ngừa và/hoặc hạn chế tổn thất phát sinh<br />c. Bảo lưu quyền khiếu nại đối với Người thứ ba đối với các thiệt hại đã xảy ra<br />d. Tuyệt đối không tự thương lượng, nhận trách nhiệm hoặc cam kết đền bù với bất kỳ bên thứ ba nào, khi chưa nhận được sự đồng ý của Cathay"
      },
      "E0029": "Hồ sơ bồi thường gồm những gì?",
      "E0029_": {
        "s001": "- Giấy yêu cầu bảo hiểm<br />- Hợp đồng bảo hiểm<br />- Hồ sơ thiết kế của dự án<br />- Kết luận điều tra tổn thất<br />- Biên bản hiện trường và/hoặc Báo cáo giám định<br />- Hoá đơn, chứng từ chi phí sửa chữa hoặc thay thế<br />- Các tài liệu khác "
      }
    }
  },
  "remark-E02": "online-insurance/liability-insurance",
  "E02": {
    "L0001": "分擔企業的責任",
    "L0002": "工廠火災造成的環境污染",
    "L0002_": {
      "s001": "工廠火災及爆炸，導致有害物質擴散，必須向周圍的人民賠償。"
    },
    "L0003": "食物中毒",
    "L0003_": {
      "s001": "公司向食用公司產品導致食物中毒的客人提供醫療賠償。"
    },
    "L0004": "貨架掉落",
    "L0004_": {
      "s001": "客戶挑選商品時被掉貨架砸中，企業必須向客戶賠償急救治療費用。"
    },
    "L0005": "保障範圍",
    "L0006": "產品責任保險",
    "L0006_": {
      "s001": "因被保險人產品導致的問題需支付的賠償。",
      "s002": "被保險人有法律義務需負擔的全部賠償金額：<br />a. 因被保險人的商品或服務對任何人造成意外傷害或疾病；意外損失或財產損失。<br />b. 根據保險規則，國泰將負擔被保險人需向索賠人支付的所有法律和訴訟費用。"
    },
    "L0007": "公共責任保險",
    "L0007_": {
      "s001": "因被保險人的業務對第三方造成傷害或財產損失提供賠償。",
      "s002": "因被保險人的業務導致第三方發生人身傷害或財產損失，國泰將賠償被保險人或代替被保險人支付損失的所有金額。(包含律師和訴訟費用)"
    },
    "L0008": "員工補償和雇主責任保險",
    "L0008_": {
      "s001": "當員工受傷或不幸死亡時，幫助企業進行員工的賠償責任。",
      "s002": "因意外事故或疾病導致被保險人的員工遭受身體傷害或死亡時，國泰將支付被保險人法律上應賠償的金額。(包含律師和訴訟費用)"
    },
    "L0009": "常見問題",
    "L0010": "請問責任險的保險對象為何？",
    "L0010_": {
      "s001": "責任險的保險對象如下：<br />因個人的過失而造成損失的企業組織。"
    },
    "L0011": "請問哪裡可以購買責任險？保費如何計算？",
    "L0011_": {
      "s001": "若要購買責任保險，請直接<a href=\"/help?type=info\">聯繫</a>國泰產險，以獲得相關產品及保費的資訊。"
    },
    "L0012": "請問責任險的保險範圍有哪些？",
    "L0012_": {
      "s001": "被保險人在工作過程中造成的疏忽或錯誤，保險公司將替被保險人向第三方支付的部分或全部賠償金。"
    }
  },
  "remark-E03": "online-insurance/property-insurance",
  "E03": {
    "E0001": "國泰守護您公司的財富",
    "E0002": "工廠火災",
    "E0003": "工廠燒毀，損壞所有工廠內的機械，設施及商品。",
    "E0004": "公司遭人惡意損壞",
    "E0005": "激進示威遊行民眾毀損公司設施、機器或搶劫公司的資產。",
    "E0006": "暴風雨淹沒工廠",
    "E0007": "突然的暴風雨和洪水淹沒工廠與設備。",
    "E0008": "强制性火災和爆炸保險",
    "E0009": "根據政府規定的強制性火災和爆炸保險，對被保險人因火災或爆炸造成的損壞或財產損失進行賠償。",
    "E0010": "國泰將賠償因火災或爆炸造成的意外財產損失(包含消防、清潔、保全、損害鑒定...等費用)。",
    "E0011": "火災與特殊損失保險",
    "E0012": "因火災，爆炸，雷暴，暴風雨或洪水造成的財產損失和損壞賠償。",
    "E0013": "國泰將賠償因下列原因造成的財產損失與損壞。例如：爆炸、雷電; 人為破壞、罷工、停工;  惡意行為造成的損害、地震或火山爆發; 暴風雨、淹水、洪水; 水塔/儲水設備或管線漏水; 車子或動物碰撞等。",
    "E0014": "財產全險",
    "E0015": "賠償被保險人因意外和不可預見的風險（例如火災，爆炸，暴風雨，盜竊）而造成的財產損壞或損失。",
    "E0016": "國泰對被保險人的財產損害進行現金賠償或修復財產。保險條款中除外不保事項除外。",
    "E0017": "保障範圍",
    "E0018": "常見問題",
    "E0019": "請問哪裏可以購買財產險？保險費怎麼計算？",
    "E0019_": {
      "s001": "若要購買財產保險，請直接<a href=\"/help?type=info\">聯繫</a>國泰產險，以獲得相關產品及保費的資訊。"
    },
    "E0020": "購買財產保險時應提供什麼文件？",
    "E0020_": {
      "s001": "購買財產保險時，需提供以下文件<br />1.投保申請書<br />2.財產名冊<br />3.提供消防安全檢查記錄<br />4.國泰產險要求的其他文件和資料<br />5.須跟國泰產險配合進行評估風險"
    },
    "E0021": "請問理賠文件包括哪些？",
    "E0021_": {
      "s001": "財產險的理賠文件，<a href=\"/member/claim/introduction?intro=assets/json/contract/language_variable/contract07.json#introductionDescription\">查看</a>。"
    }
  },
  "remark-E04": "online-insurance/cargo-insurance",
  "E04": {
    "E0001": "有了國泰，貨物將安全地交付到您的手中",
    "E0002": "貨船與其他船隻相撞",
    "E0003": "貨船航行時與另一艘船發生碰撞而在海上沉沒，導致所有貨物沉入海底。",
    "E0004": "貨運卡車傾覆",
    "E0005": "為了避讓行人，駕駛人突然轉換方向，導致貨車翻覆，車上貨物均受到嚴重損壞。",
    "E0006": "冷凍貨船的冷凍機損壞",
    "E0007": "在運輸冷凍肉時，貨船發生事故導致冷凍設備無法運行48小時，導致船上所有的肉類皆已損壞且無法使用。",
    "E0008": "海上及公路貨物運輸保險",
    "E0009": "因意外和未知風險導致海上或公路運輸期間貨物損壞或損失的賠償。",
    "E0010": "國泰提供以下原因對被保險貨物造成的損失或損害賠償：火災或爆炸、地震、洪水、颱風、海嘯和閃電；交通工具沉沒、傾倒、翻覆、擱淺、與其他交通工具碰撞或與另一個物體碰撞或脫軌； 樹木，橋樑，隧道和其他建築物倒塌； 交通工具失蹤；共同海損...等。",
    "E0011": "空中貨物運輸保險",
    "E0012": "因意外和未知風險導致航空運輸過程中造成貨物損壞或損失的賠償。",
    "E0013": "國泰承擔在以下情況被保險物體（空運貨物）發生任何損失或損壞的風險；如：火災或爆炸； 颱風、龍捲風、雷擊； 交通工具失蹤、掉落、與其他交通工具碰撞或與另一個物體碰撞...等，保險條款中除外不保事項除外。",
    "E0014": "冷凍食品保險",
    "E0015": "賠償運輸過程中冷凍食品損壞或損失。",
    "E0016": "國泰賠償承保的冷凍食品因下列原因導致的損失或損害：冷凍設備故障導致機器連續停機超過24小時；火災或爆炸；船隻擱淺、沉沒或傾覆；車輛碰撞或出軌；與船舶或駁船碰撞、與交通運輸碰撞，和任何物體碰撞；在避難港口卸貨...等其他原因。",
    "E0017": "國內貨運保險",
    "E0018": "在越南境內運輸期間貨物損壞或損失的賠償。",
    "E0019": "國泰賠償因下列原因對被保險貨物造成的損失或損害：如：火災或爆炸、地震、洪水、颱風、海嘯和閃電；交通工具沉沒、傾倒、翻覆、擱淺、與其他交通工具碰撞或與另一個物體碰撞或脫軌； 樹木，橋樑，隧道和其他建築物倒塌； 交通工具失蹤。(包含預防或減輕被保險貨物損失；運輸途中需將被保險貨物裝卸、儲存和寄送；鑑定損失； 共同海損和救援的費用。)",
    "E0020": "保障範圍",
    "E0021": "常見問題",
    "E0022": "請問在哪裏可以購買貨物運輸險？保險費如何計算？",
    "E0022_": {
      "s001": "請直接<a href=\"/help?type=info\">聯繫</a>國泰產險，即可獲得完整的商品及保費資訊。費率取決於商品類型，包裝方式，運輸方式，路線..."
    },
    "E0023": "購買貨物運輸險後，何時保險生效？",
    "E0023_": {
      "s001": "當貨物離開倉庫，或是合約指定地點那刻起，保險就算是生效。"
    },
    "E0024": "請問若發生事故時，哪些費用會獲得理賠？",
    "E0024_": {
      "s001": "當購買貨物運輸險並發生保險範圍內的意外時，以下費用會獲得理賠：<br />- 為了避免貨物發生損失而產生的費用。<br />- 在途中發生意外事故而導致卸貨、存貨、運輸貨物的費用<br />- 損失發生時評估而產生的費用。<br />- 其他費用"
    }
  },
  "remark-F001": "member",
  "F001": {
    "L0001": "我的訂單",
    "L0002": "我要續保",
    "L0003": "保單變更",
    "L0004": "我要理賠",
    "L0005": "理賠進度查詢",
    "L0006": "保戶服務中心",
    "L0007": "您現在有",
    "L0008": "張保單",
    "L0009": "查看全部",
    "L0010": "旅遊險",
    "L0011": "汽車險",
    "L0012": "機車險",
    "L0013": "看我的人壽保單",
    "L0014": "開通線下保單資訊",
    "L0015": "重要通知",
    "L0016": "查看全部",
    "L0017": "看更多",
    "L0018": "目前沒有符合的保單",
    "L0019": "目前僅開放旅遊險保單進行線上變更，若要變更其他險種保單請洽業務員，謝謝。",
    "L0020": "請選擇要續保的保單",
    "L0021": "保險期間",
    "L0022": "保單號碼",
    "L0023": "F001.L0023-tw-請選擇要變更的保單",
    "L0024": "目前沒有重要通知",
    "L0025": "目前僅開放機、汽車險保單進行線上續保，若要續保其他險種保單請洽業務員，謝謝",
    "L0026": " 張保單"
  },
  "remark-F03": "insurance-changing",
  "F03": {
    "F0001": "選擇時間",
    "F0002": "再次確認",
    "F0003": "完成變更",
    "F0004": "保期變更",
    "F0005": "原始保險時間：",
    "F0006": "變更後的保險時間",
    "F0007": "請選擇日期",
    "F0008": "請選擇時間",
    "F0009": "共投保 $ 天，保障至 $ 止",
    "F0010": "下一步",
    "F0011": "保期變更確認",
    "F0012": "原始保險時間：",
    "F0013": "變更後的保險時間：",
    "F0014": "您要變更的資料已受理成功，謝謝。",
    "F0015": "返回保戶服務中心",
    "F0016": "請選擇要變更的保單",
    "F0017": "保險期間",
    "F0018": "保單號碼",
    "F0019": "目前僅開放旅遊險保單進行線上變更，若要變更其他險種保單請洽業務員，謝謝",
    "F0020": "提醒您",
    "F0021": "目前僅開放旅遊險保單進行線上變更，若要變更其他險種保單請洽業務員。",
    "F0022": "保險期間的變更一張保單僅能變更一次，僅限保險期間平移，暫無法進行保期延長或縮短的變更。",
    "F0023": "要/被保人不相同團險件保單如需變更，請洽業務員辦理。",
    "F0024": "如果執行變更保單，快速理賠不會主動通知。",
    "F0025": "我知道了",
    "F0026": "保期錯誤",
    "F0027": "很抱歉，保險起訖日期時間需大於+6小時後。",
    "F0028": "系統維護中",
    "F0029": "系統優化處理中，請稍後再嘗試。<br />若有任何問題請聯絡客服，謝謝。<br />客服電話：0933-555-920<br />服務時間 08:30 - 21:00",
    "F0030": "此欄必填",
    "F0031": "保險起訖日期時間需大於+6小時後",
    "F0032": "變更後的日期時間不可與原日期時間相同",
    "F0033": "變更後的開始日期時間不可大於會員生日 $ 歲"
  },
  "remark-F05": "fast-claim",
  "F05": {
    "F0001": "選擇理賠保單",
    "F0002": "旅遊險",
    "F0003": "下一步",
    "F0004": "班機延誤",
    "F0005": "改降其他機場",
    "F0006": "班機取消",
    "F0007": "請選擇理賠航班",
    "F0008": "最多選擇2班航班",
    "F0009": "填寫理賠資料",
    "F0010": "線上理賠",
    "F0011": "理賠項目與航班",
    "F0012": "上傳檔案",
    "F0013": "(限jpg、pdf，不超過7MB)",
    "F0014": "上傳登機證",
    "F0015": "上傳電子機票",
    "F0016": "移除此筆資料",
    "F0017": "新增一筆理賠資料",
    "F0018": "事發經過說明",
    "F0019": "請敘述事發經過",
    "F0020": "聯絡方式",
    "F0021": "下款方式與資料",
    "F0022": "下款方式",
    "F0023": "請選擇",
    "F0024": "銀行",
    "F0025": "請輸入銀行",
    "F0026": "省份",
    "F0027": "請輸入省份",
    "F0028": "分行",
    "F0029": "請輸入分行",
    "F0030": "帳號",
    "F0031": "請輸入帳號",
    "F0032": "身分證(正面)",
    "F0033": "身分證(反面)",
    "F0034": "存摺影本",
    "F0035": "提交申請",
    "F0036": "銀行帳戶匯款",
    "F0037": "銀行臨櫃提款",
    "F0038": "上傳檔案失敗，請上傳新檔案",
    "F0039": "上傳失敗，檔案超過7MB。",
    "F0040": "新增航班資訊",
    "F0041": "系統維護中",
    "F0042": "系統優化處理中，請稍後再嘗試。<br />若有任何問題請聯絡客服，謝謝。<br />客服電話：0933-555-920<br />服務時間 08:30 - 21:00",
    "F0043": "是否確定刪除？",
    "F0044": "確定刪除",
    "F0045": "再想想",
    "F0046": "提醒您",
    "F0047": "送出的資料將無法修改<br />確認送出？",
    "F0049": "我知道了",
    "F0050": "取消",
    "F0051": "我要理賠",
    "F0052": "線上理賠申請",
    "F0053": "若要申請線上旅遊險理賠的服務，請立即登入或註冊",
    "F0054": "立即登入",
    "F0055": "您有",
    "F0056": "張保單符合理賠資格，立即申請。",
    "F0057": "事故日期",
    "F0058": "請輸入事故日期及時間",
    "F0059": "理賠險種",
    "F0060": "您的理賠申請已提交",
    "F0061": "若須查詢理賠進度，您可以至",
    "F0062": "理賠進度查詢",
    "F0063": "返回保戶服務中心",
    "F0064": "查無符合理賠資格的保單",
    "F0065": "查無符合理賠資格的保單<br />",
    "F0066": "如有疑問請洽你的業務人員，<br />    或撥打本公司免付費客服專線，<br />    我們將竭誠為您服務。<br />",
    "F0067": "服務時間 08:30 - 21:00",
    "F0068": "(限jpg，不超過7MB)",
    "F0069": "郡縣",
    "F0070": "分行地址",
    "F0071": "張保單符合理賠資格，立即申請。",
    "F0072": "請輸入事故日期及時間",
    "F0073": "編輯航班資料"
  },
  "remark-F06": "member/claim/search",
  "F06": {
    "F0001": "理賠進度查詢",
    "F0002": "所有類型",
    "F0003": "派件中",
    "F0004": "受理中",
    "F0005": "退件",
    "F0006": "文件待補",
    "F0007": "下款",
    "F0008": "免賠",
    "F0009": "商品名稱",
    "F0010": "受理編號",
    "F0011": "被保人",
    "F0012": "事故日期",
    "F0013": "聯絡理賠專員",
    "F0014": "請補齊以下文件",
    "F0015": "申請書",
    "F0016": "保單",
    "F0017": "若有任何問題，請聯繫理賠專員",
    "F0018": "上傳補件",
    "F0019": "您好，本案賠付金額為:",
    "F0020": "請你在收到通知的3日後檢查您的理賠款項是否到帳，若有任何問題，請聯繫理賠專員",
    "F0021": "賠付資訊",
    "F0022": "您好，您向國泰產險申請的理賠結果為免賠付。<br />若有任何問題，請聯繫理賠專員。",
    "F0023": "您好，本次理賠因故退件。若有任何問題，請聯繫理賠專員。",
    "F0024": "請補齊以下文件",
    "F0025": "(限jpg、pdf，不超過7MB)",
    "F0026": "醫院證明",
    "F0027": "醫療報告",
    "F0028": "上傳檔案",
    "F0029": "上傳失敗，檔案超過7MB。",
    "F0030": "提交補件",
    "F0031": "報案編號",
    "F0032": "本案賠付金額",
    "F0033": "下款方式",
    "F0034": "理賠專員",
    "F0035": "服務時間",
    "F0036": "E-mail",
    "F0037": "客服電話",
    "F0038": "理賠專員資訊",
    "F0039": "保單號碼",
    "F0040": "賠案號碼-次數",
    "F0041": "不分日期",
    "F0042": "目前沒有任何理賠申請",
    "F0043": "系統維護中",
    "F0044": "<p>系統優化處理中，請稍後再嘗試。</p>若有任何問題請聯絡客服，謝謝。<br />客服電話：<a href='tel:0933-555-920'class='phone'>0933-555-920</a><br />服務時間：08:30 - 21:00"
  },

  "remark-F07": "member/maintain",
  "F07": {
    "title": {
      "F0001": "會員資料維護"
    },
    "content": {
      "F0001": "會員資料",
      "F0002": "姓名",
      "F0003": "F07.F07.CF0003-tw",
      "F0004": "身分證字號",
      "F0005": "F07.F07.CF0005-tw",
      "F0006": "F07.F07.CF0006-tw",
      "F0007": "待審核",
      "F0008": "F07.F07.CF0008-tw",
      "F0009": "已連動舊式身分證",
      "F0010": "新增身分證字號",
      "F0011": "重新驗證",
      "F0012": "生日",
      "F0013": "性別",
      "F0014": "男",
      "F0015": "女",
      "F0016": "帳號",
      "F0017": "F07.F07.CF0017-tw",
      "F0018": "E-mail",
      "F0019": "請輸入備用信箱",
      "F0020": "密碼",
      "F0021": "密碼變更",
      "F0022": "設定新密碼",
      "F0023": "手機",
      "F0024": "請輸入手機號碼",
      "F0025": "聯絡地址",
      "F0026": "請輸入詳細地址",
      "F0027": "社群帳號綁定",
      "F0028": "已綁定",
      "F0029": "變更",
      "F0030": "變更",
      "F0031": "儲存變更",
      "F0032": "F07.F07.CF0032-tw",
      "F0033": "格式輸入錯誤",
      "F0034": "新增身分證",
      "F0035": "若您曾經更換過身分證，可在此新增您的身分證號碼，已查詢您的完整保單內容。",
      "F0036": "新增身分證字號",
      "F0037": "您所提交的身分資料將會進行人工審核",
      "F0038": "身分證字號",
      "F0039": "請輸入身分證字號",
      "F0040": "請輸入9或12碼身分證字號",
      "F0041": "上傳照片",
      "F0042": "(限jpg，不超過10MB)",
      "F0043": "身分證(正面)",
      "F0044": "身分證(反面)",
      "F0045": "進行審核",
      "F0046": "F07.F07.CF0046-tw",
      "F0047": "F07.F07.CF0047-tw",
      "F0048": "提交成功",
      "F0049": "綁定社群帳號",
      "F0050": "若您已於國泰產險官網申請會員帳號並註冊完成，你可以將國泰會員帳號綁定您的社群帳號，將來可直接以社群帳號登入。",
      "F0051": "與Facebook帳號綁定",
      "F0052": "與Google帳號綁定",
      "F0053": "上傳失敗，檔案超過7MB",
      "F0054": "驗證失敗"
    }
  },
  "remark-F08": "member/verify",
  "F08": {
    "L0001": "開通線下保單資訊",
    "L0002": "請輸入任何一張”非官網購買”的保單號碼，進行保單驗證，驗證成功後即可查詢自身所有的保單詳情。",
    "L0003": "保單號碼",
    "L0004": "請輸入保單號碼",
    "L0005": "驗證",
    "L0006": "開通失敗",
    "L0007": "請再次確認您的保單號碼，重新開通。",
    "L0008": "重新輸入保單資料",
    "L0009": "保戶資料維護",
    "L0010": "若您曾經更換過身份證號碼，請至",
    "L0011": "新增身分證號碼再重新開通，或與客服人員聯繫，謝謝。客服電話：",
    "L0012": "",
    "L0013": "F08.L0013-tw",
    "L0014": "開通成功",
    "L0015": "現在您可以看到您所有的保單資訊。",
    "L0099": "G02.L0010-tw"
  },
  "remark-F09": "member/claim/introduction",
  "F09": {
    "L0001": "個人險",
    "L0001_": {
      "s001": "車險",
      "s005": "車險",
      "s002": "旅遊險",
      "s003": "意外保險",
      "s004": "房屋保險",
      "s006": "房屋保險"
    },
    "L0002": "商業險",
    "L0002_": {
      "s001": "工程保險",
      "s005": "工程保險",
      "s002": "責任保險",
      "s006": "責任保險",
      "s003": "財產保險",
      "s004": "運輸保險",
      "s007": "運輸保險"
    },
    "L0009": "事故通知",
    "L0010": "準備理賠文件",
    "L0011": "提交理賠文件",
    "L0012": "等待國泰產險的回應",
    "L0013": "意外事故發生後的30天內，向國泰產險發出書面通知。",
    "L0014": "有關詳細文件，請參考",
    "L0015": "這邊。",
    "L0016": "盡速將理賠文件提交給國泰產險，最晚提交的時間不超過保險事件發生日的1年。",
    "L0017": "收到完整有效的理賠申請後，國泰產險將在15個工作日內通知結果。",
    "L0018": "理賠文件",
    "L0019": "防止傷害擴大，並立即通知當局和國泰產險",
    "L0020": "拍攝意外現場照片，並書面通知國泰產險",
    "L0021": "保持事故現場，並採取必要的措施以減少損失及損害擴大。<br />撥打115讓傷患得到即時的治療（如果有），並立即撥打113後，再與國泰產險聯繫詢問後續處理及解決方式。",
    "L0022": "拍攝車輛全景（正面、背面、側面）、現場細節與損失細節。意外發生後5天內將理賠申請書寄給國泰產險。",
    "L0023": "準備理賠文件，並儘快寄給國泰。詳細文件請參考",
    "L0024": "這裡。",
    "L0025": "國泰產險將根據提交的理賠文件，進行損害評估並盡速回應客戶。",
    "L0026": "意外事故發生後24小時內，書面通知最近的國泰產險辦公室與相關當局、飯店或旅行社。",
    "L0027": "保單上的保險期間結束後30天內或客戶回到越南時，將理賠申請書與所需要文件寄給國泰產險。",
    "L0028": "國泰產險將在收到完整申請後的15天內回復客戶。",
    "L0029": "立即採取降低損失的措施，及盤點損失的資產，並在24小時內通知給國泰產險跟警察（若有第三者破壞行為或惡意目的所造成損害的情況下）。保持現場，保留對於第三方的起訴權，絕對不跟第三方商量賠償。",
    "L0030": "在事故現場與鑑定人合作，蒐集相關資訊，並向國泰產險提供發票、憑證、收據、其他文件、相關證據、損失相關資訊、說明損失情況等必備資料，國泰產險需要的相關文件，",
    "L0030_": "。",
    "L0031": "請參考這裡",
    "L0032": "請於事故後30天內將相關理賠文件寄給國泰產險。",
    "L0033": "收到最後鑑定結果與完整需要文件後15天內，國泰產險將向投保人通知理賠結果。",
    "L0034": "盡速維修損壞標的",
    "L0035": "通知國泰後，要保人可以維修或更換受損部分。若有其他情形，在維修之前國泰產險將進行損失鑑定。若未收到國泰產險的同意書，絕不跟第三者商量賠償。",
    "L0036": "準備理賠文件，並儘快提供給國泰產險。詳細文件請參考",
    "L0036_": "。",
    "L0037": "此處",
    "L0038": "檢查現場和保留對第三方訴訟的權利",
    "L0039": "一旦發現貨物遭受損失時，採取必要措施以降低損失。立即通知國泰產險，同時在72小時內，將損失通知書提交國泰產險與相關單位。（船長、代理商、推銷員。。。）",
    "L0040": "與保單上指定，或是國泰產險收到損失通知書後的指定鑑定商聯繫並合作。在解決意外事故過程中，要遵守國泰產險或國泰產險代表人的指示。若未收到國泰產險的同意書，絕不跟第三者商量賠償。      ",
    "L0041": "在30天內提交給國泰產險關於損失、損害的起訴書，其中詳細列出受損失的所有部分或貨物項目、損失程度。其他保險有關詳細信息（如果有），其他國泰產險要求的資料，請參考",
    "L0042": "收到最後鑑定結果與完整必備文件後15天內，國泰產險將向要保人通知理賠結果。",
    "L0043": "盡力採取措施以減少損失。保管損失部分，並讓國泰產險或鑑定人進行鑑定。如果因盜劫或跟第三方有關而造成的損失，請通知警察。24小時內通知給國泰產險，14天內將證明損失程度的相關文件寄給國泰產險。",
    "L0044": "現場檢查和保留向第三方訴訟的權利",
    "L0045": "事件發生後，立即通知警方，並協助警方進行調查以釐清事故。立即採取一切合理措施，防止和(或)將低損失的發生，並保護事故現場。並且於24小時內通知國泰產險。",
    "L0046": "在現場鑑定過程中與鑑定人合作。 收集並向國泰產險提供發票、憑證、收據、其他文件、證據、關於損失的信息、說明損失原因跟情況的相關資料，國泰產險要求的資料，請參考",
    "L0046_": "。若未收到國泰的同意書，絕不跟第三者商量賠償。",
    "L0047": "",
    "L0048": "要保人必須向國泰產險提供所有關於損失或可能造成損失情況的訊息及資料，同時，幫助國泰產險計算損失價值。收集並寄給國泰產險要求的相關文件，請參考",
    "L0048_": "。",
    "L0049": "收到最後鑑定結果、有關當局的判決與完整需要文件後15天內，國泰產險將向要保人通知理賠結果。",
    "L0050": "立即採取必要措施以減少損失並找尋丟失的財產。24小時內通知給國泰產險跟警察（如果在因破壞行為或惡意目的而造成損害的情況下）。保持事故現場，保留對於第三方的起訴權。絕不跟第三方商量賠償。",
    "L0051": "在現場鑑定過程中，請與鑑定人合作。 收集並向國泰產險提供發票、憑證、收據、其他文件、證據、關於損失的信息、說明損失原因跟情況的相關資料，國泰產險要求的資料，請參考",
    "L0051_": "。",
    "L0052": "30天內提供給國泰產險毀損或遺失財產的理賠文件，其中詳細列出所有遺失或壞掉的物品，以及根據當時財產價值的損害金額，以及其他保單有關詳細訊息（如果有）。 其他國泰產險要求的資料，請參考",
    "L0052_": "。",
    "L0053": "收到最後鑑定結果與完整需要文件後15天內，國泰產險將向投保人通知理賠結果。",
    "L0054": "快速理賠流程",
    "L0055": "一般理賠流程",
    "L0056": "網路投保",
    "L0057": "投保時輸入航班資訊。",
    "L0058": "符合理賠資格",
    "L0059": "延誤時間符合保險規定。",
    "L0060": "網站申請",
    "L0061": "上傳登機證, 輸入銀行帳戶。",
    "L0062": "完成理賠",
    "L0063": "確認資料無誤，立即撥款",
    "L0064": "理賠進度查詢。",
    "L0065": "理賠介紹",
    "L0066": "說明及理賠應備文件",
    "L0067": "經常問的問題",
    "L0068": "為什麼我出差旅遊時需要購買旅行保險?",
    "L0069": "您需要旅遊保險有兩個基本原因，如下所示：<br />1.在發生意外，意外事件之前為您提供財務保護。<br />2.簽證程序，進入有條件的國家。",
    "L0070": "誰可以加入國內的國內旅行保險？",
    "L0071": "申請申根區簽證時，哪種保險適合？"
  },

  "remark-F010": "insurance-query",
  "F010": {
    "F0001": "強制險查詢",
    "F0002": "此功能只能查到強制險保單的基本內容。若想查看詳細內容，請",
    "F0003": "登錄會員",
    "F0004": "。",
    "F0005": "保單號碼",
    "F0006": "車輛登記訊息",
    "F0006_": {
      "s001": "保單號碼",
      "s002": "車牌號碼",
      "s003": "類型",
      "s004": "保險期間",
      "s005": "車身號碼",
      "s006": "引擎號碼",
      "s007": "車牌號碼"
    },
    "F0007": "查詢",
    "F0008": "查詢結果",
    "F0009": "查無資料， 請重新輸入",
    "F0010": "我知道了",
    "F0011": "服務端異常，請稍後再試"
  },

  "remark-F011": "about",
  "F011": {
    "L0001": "我的訂單",
    "L0002": "目前沒有訂單資料",
    "L0003": "未付款",
    "L0004": "付款完成",
    "L0005": "編輯訂單",
    "L0006": "刪除訂單",
    "L0007": "訂單號碼",
    "L0008": "旅遊地區",
    "L0009": "保險期間",
    "L0010": "險種",
    "L0011": "保費",
    "L0012": "立即付款",
    "L0013": "車牌號碼",
    "L0014": "投保人數",
    "L0015": "F011.L0015-tw",
    "L0016": "車身號碼",
    "L0017": "是否確定刪除訂單？",
    "L0099": "我要應徵"
  },

  "remark-F012": "member/my-order/detail",
  "F012": {
    "L0001": "訂單資訊",
    "L0002": "類型",
    "L0003": "保險期間",
    "L0004": "加購方案",
    "L0005": "保額",
    "L0006": "投保人訊息",
    "L0007": "姓名",
    "L0008": "生日",
    "L0009": "手機",
    "L0010": "險種",
    "L0011": "F012.L0011-tw",
    "L0012": "聯絡地址",
    "L0013": "車輛登記訊息",
    "L0014": "車主姓名",
    "L0015": "車牌號碼",
    "L0016": "車身號碼",
    "L0017": "聯絡地址",
    "L0018": "選擇付款方式",
    "L0019": "我已閱讀和同意",
    "L0020": "《保險規則》",
    "L0021": "《隱私政策》",
    "L0022": "《保密政策》",
    "L0023": "合計保費",
    "L0024": "立即付款",
    "L0025": "國際卡",
    "L0026": "國內簽帳金融卡",
    "L0027": "電子錢包",
    "L0028": "性別",
    "L0029": "男",
    "L0030": "女",
    "L0031": "機車險",
    "L0032": "汽車險",
    "L0033": "旅遊險",
    "L0033_": {
      "s001": "旅遊地區",
      "s002": "保險期間",
      "s003": "投保人數",
      "s004": "險種",
      "s005": "去程航班編號",
      "s006": "回程航班編號",
      "s007": "轉機航班編號",
      "s008": "班機日期",
      "s009": "起飛機場",
      "s010": "降落機場"
    },
    "L0034": "引擎號碼",
    "L0035": "座位數",
    "L0036": "車種",
    "L0037": "乘客險保障人數",
    "L0038": "被保人 ",
    "L0039": "航班資料",
    "L0040": "和",
    "L0041": "我承諾並保證所提供的信息是完整和準確的，並對所提供的信息承擔全部責任。",
    "L0099": "G02.L0010-tw"
  },
  "remark-F021": "member/my-policy",
  "F021": {
    "L0001": "我的保單",
    "L0002": "目前沒有保單資料",
    "L0003": "機車險",
    "L0004": "汽車險",
    "L0005": "旅遊險",
    "L0006": "找不到保單嗎? 馬上進行開通線下保單驗證。",
    "L0007": "開通線下保單驗證",
    "L0008": "現在不用",
    "L0009": "全部",
    "L0010": "三個月內",
    "L0011": "半年內",
    "L0012": "一年內",
    "L0013": "兩年內",
    "L0014": "生效中",
    "L0015": "尚未生效",
    "L0016": "已失效",
    "L0017": "可續保",
    "L0018": "保單變更",
    "L0019": "保單下載",
    "L0020": "投保人訊息",
    "L0021": "姓名",
    "L0022": "E-mail",
    "L0023": "手機",
    "L0024": "保單資料",
    "L0025": "此保單顯示內容為簡易內容，實際保單詳細內容請見紙本保單。",
    "L0026": "生效中",
    "L0027": "保單號碼",
    "L0028": "保險期間",
    "L0029": "保費",
    "L0030": "被保人保障內容",
    "L0031": "保障內容",
    "L0032": "車牌號碼",
    "L0033": "請輸入身分證號後6碼以開啟保單",
    "L0034": "下載",
    "L0035": "不分日期",
    "L0036": "所有類型",
    "L0037": "汽車險",
    "L0038": "機車險",
    "L0039": "旅遊險",
    "L0099": "可續保"
  },
  "remark-F022": "member/my-policy/detail",
  "F022": {
    "F0001": "保單號碼",
    "F0002": "保險期間",
    "F0003": "保費",
    "F0004": "保障範圍",
    "F0005": "元",
    "F0006": "附加條款",
    "F0007": "車輛登記訊息",
    "F0007_": {
      "s001": "車種",
      "s002": "類型",
      "s003": "座位數",
      "s004": "噸數",
      "s005": "類型",
      "s006": "車身號碼",
      "s007": "引擎號碼"
    },
    "F0008": "本保單投保人數達10人以上，僅顯示本人投保內容，其餘被保人請查詢書面保單或電子保單。",
    "F0009": "投保人訊息",
    "F0010": "提醒您",
    "F0011": "目前僅開放旅遊險保單進行線上變更，若要變更其他險種保單請洽業務員。",
    "F0012": "保險期間的變更一張保單僅能變更一次，僅限保險期間平移，暫無法進行保期延長或縮短的變更。",
    "F0013": "要/被保人不相同團險件保單如需變更，請洽業務員辦理。",
    "F0014": "如果變更保單，快速理賠不會主動通知。",
    "F0015": "我知道了",
    "F0016": "請在",
    "F0017": "前完成續保"
  },
  "remark-F075": "member/change-password",
  "F075": {
    "title": {
      "F0001": "密碼變更"
    },
    "content": {
      "F0001": "舊密碼",
      "F0002": "請輸入舊密碼",
      "F0003": "密碼錯誤",
      "F0004": "密碼變更完成"
    }
  },
  "remark-I01": "news",
  "I01": {
    "title": {
      "I0001": "最新消息"
    },
    "content": {
      "I0001": "全部公告",
      "I0002": "媒體新聞",
      "I0003": "優惠活動",
      "I0004": "其他",
      "I0005": "回上一頁",
      "I0006": "前往活動頁",
      "I0007": "看更多"
    }
  },
  "remark-G01": "about",
  "G01": {
    "L0001": "公司介紹",
    "L0002": "關於國泰",
    "L0003": "國泰世紀產物保險股份有限公司成立於1993年7月，原名東泰產物保險股份有限公司，於2002年加入「國泰金控」，透過集團資源整合，提供客戶一次購足金融商品的便利以及專業個人理財的服務，同年並更名為國泰世紀產物保險股份有限公司，自2007年起穩居台灣第二大產物保險公司的地位，同時也不斷向外擴展經營版圖，分別於2008年及2010年成立大陸國泰產險和越南國泰產險，並迅速佈點，2016年9月大陸國泰產險以增資擴股方式引進阿里巴巴集團旗下的螞蟻金融服務攜手合作互聯網金融服務。",
    "L0004": "經營理念",
    "L0005": "本公司秉持「質量並重、穩健踏實」的經營理念，積極開發市場商機，拓展組織規模，並有效提高業務品質、做好費用管控，以追求質（獲利）及量（市占率）齊頭併進地成長，創造出公司卓越的經營績效。另外，本公司也在企業社會責任上積極奉獻一己之力，除了參與國泰金控舉辦的各項公益活動外，並以「損害防阻」為核心觀念，推動「不意外學園」-宣導校園安全活動及推廣「零事故研究所」網站-為所有行車人交通安全把關，更以環境保護為議題，展現在商品設計上，鼓勵大眾多加響應政府節能減碳運動，期能為社會盡心，為環保盡力；未來國泰產險將以創新多元的服務內容，來滿足客戶的需求及提高企業的價值，也將如同本公司商標 --「大樹」一樣，持續「呵護您美麗的家園」。",
    "L0006": "服務據點",
    "L0007": "全部據點",
    "L0008": "公司總部",
    "L0009": "河內分部",
    "L0010": "同奈",
    "L0011": "芹苴",
    "L0012": "峴港",
    "L0013": "海防",
    "L0014": "總公司",
    "L0015": "電話",
    "L0016": "傳真",
    "L0017": "熱線",
    "L0018": "加入國泰",
    "L0019": "更多職缺",
    "L0020": "ĐVKD Phía Nam 2 (VP2)",
    "L0021": "Cathay Hà Nội (PKD2)",
    "L0099": "G01.L0099"
  },

  "remark-G021": "opening",
  "G021": {
    "L0001": "職缺總覽",
    "L0002": "全部",
    "L0003": "保險業務",
    "L0004": "程式設計師",
    "L0005": "行銷企劃人員",
    "L0006": "職缺詳情",
    "L0007": "職缺內容",
    "L0008": "工作需求",
    "L0009": "工作地點",
    "L0010": "我要應徵",
    "L0011": "聯絡資訊"
  },

  "remark-G022": "opening-detail",
  "G022": {
    "L0001": "我要應徵："
  },

  "remark-H01": "help",
  "H01": {
    "H0001": "幫助中心",
    "H0002": "常見問題",
    "H0003": "文件下載",
    "H0004": "寫信諮詢",
    "H0005": "Hi, 在找什麼嗎？輸入想找尋的內容",
    "H0006": "個人商品",
    "H0006_": {
      "s001": "汽車險",
      "s002": "機車險",
      "s003": "旅遊險",
      "s004": "意外保險",
      "s005": "房屋保險"
    },
    "H0007": "企業商品",
    "H0007_": {
      "s001": "工程保險",
      "s002": "責任保險",
      "s003": "財產保險",
      "s004": "運輸保險"
    },
    "H0042": "其他文件",
    "H0042_": {
      "s001": "其他文件"
    },
    "H0008": "所有問題",
    "H0009": "投保",
    "H0010": "理賠",
    "H0011": "其他",
    "H0012": "理賠",
    "H0013": "「強制險」是甚麼? 提供什麼樣的保障?",
    "H0013_": {
      "s001": "強制險為依法必須投保的保險，也是驗車時必備險種，目的在使交通事故之受害者，能獲得基本保障，但強制汽車責任保險可提供的保障十分有限，且沒有保障駕駛人及自用車輛的損傷，建議再規劃其他車險補足保障缺口。"
    },
    "H0014": "如何投保強制汽/機車責任險？車險投保應備文件為何？",
    "H0014_": {
      "s001": "強制險為依法必須投保的保險，也是驗車時必備險種，目的在使交通事故之受害者，能獲得基本保障，但強制汽車責任保險可提供的保障十分有限，且沒有保障駕駛人及自用車輛的損傷，建議再規劃其他車險補足保障缺口。"
    },
    "H0015": "未投保汽/機車強制責任保險中，會遭受如何之處罰？",
    "H0015_": {
      "s001": "強制險為依法必須投保的保險，也是驗車時必備險種，目的在使交通事故之受害者，能獲得基本保障，但強制汽車責任保險可提供的保障十分有限，且沒有保障駕駛人及自用車輛的損傷，建議再規劃其他車險補足保障缺口。"
    },
    "H0016": "強制汽/機車責任保險投保後，中途能否辦理退保？",
    "H0016_": {
      "s001": "強制險為依法必須投保的保險，也是驗車時必備險種，目的在使交通事故之受害者，能獲得基本保障，但強制汽車責任保險可提供的保障十分有限，且沒有保障駕駛人及自用車輛的損傷，建議再規劃其他車險補足保障缺口。"
    },
    "H0017": "貨物運輸險(水險)",
    "H0017_": {
      "s001": "空運貨物運輸保險",
      "s002": "汽油散裝貨保險",
      "s003": "煤炭貨物險",
      "s004": "煤炭内地運輸險",
      "s005": "貨物運輸險（冷凍食品A）",
      "s006": "貨物運輸險（冷凍食品C）",
      "s007": "貨物運輸險（冷凍肉品A）",
      "s008": "貨物運輸險（冷凍肉品A-24小時）",
      "s009": "貨物運輸險（冷凍肉品C-24小時）",
      "s010": "1/1/09貨物運輸保險（A）",
      "s011": "1/1/09貨物運輸保險（B）",
      "s012": "1/1/09貨物運輸保險（C）",
      "s013": "1/1/09貨物運輸保險（暴動條款）",
      "s014": "1/1/09貨物運輸保險（戰爭條款）"
    },
    "H0018": "財產險(火險)",
    "H0018_": {
      "s001": "強制火險",
      "s002": "任意火險",
      "s003": "財產全險（包括強制火險）",
      "s004": "火險全險（財產全險）",
      "s005": "火險全險（財產全險-營業中斷險）",
      "s006": "店鋪保險"
    },
    "H0019": "工程險",
    "H0019_": {
      "s001": "營造綜合險",
      "s002": "安裝工程險",
      "s003": "營建機具險",
      "s004": "機械保險",
      "s005": "專業責任保險",
      "s006": "建築工人補償保險",
      "s007": "安裝強制險"
    },
    "H0020": "責任險(其他險)",
    "H0020_": {
      "s001": "公共意外責任險",
      "s002": "產品責任保險",
      "s003": "員工誠實保險",
      "s004": "現金保險",
      "s005": "公共暨產品責任保險",
      "s006": "工程師專業責任險",
      "s007": "雇主責任險",
      "s008": "雇員補償保險",
      "s009": "碼頭責任險"
    },
    "H0021": "傷害險",
    "H0021_": {
      "s001": "一般型傷害保險（全球）",
      "s002": "越南型傷害保險",
      "s003": "2019-2020年新越南型醫療傷害保險",
      "s004": "員工福利保險",
      "s005": "用電戶保險",
      "s006": "個人傷害保險"
    },
    "H0022": "您的姓名",
    "H0023": "手機號碼",
    "H0024": "E-mail",
    "H0025": "意見類型",
    "H0025_": {
      "s001": "投保相關",
      "s001_": {
        "p001": "汽車險",
        "p002": "機車險",
        "p003": "旅遊險",
        "p004": "意外險",
        "p005": "房屋險",
        "p006": "商業險"
      },
      "s002": "理賠相關",
      "s003": "保戶服務相關",
      "s004": "異業合作相關",
      "s005": "我要投訴",
      "s006": "我要應徵",
      "s007": "其他 "
    },
    "H0035": "旅綜險",
    "H0035_": {
      "s001": "國外旅遊險",
      "s002": "國内旅遊險",
      "s003": "國內旅遊險（航班延誤）"
    },
    "H0036": "汽車險",
    "H0036_": {
      "s001": "強制汽車險",
      "s002": "任意汽車險",
      "s003": "駕駛/副駕駛/乘客險",
      "s004": "2018年任意汽車體險"
    },
    "H0037": "機車險",
    "H0037_": {
      "s001": "強制機車險",
      "s002": "任意機車險",
      "s003": "駕駛/副駕駛/乘客險",
      "s004": "任意機車體險"
    },
    "H0038": "住宅火險",
    "H0038_": {
      "s001": "住宅綜合火險（任意火險）"
    },
    "H0043": "其他文件",
    "H0043_": {
      "s001": "檢舉制度",
      "s002": "越南國泰產物保險有限公司檢舉表"
    },
    "H0026": "您的意見",
    "H0027": "輸入驗證碼",
    "H0028": "確認送出",
    "H0029": "清除重填",
    "H0030": "事故處理",
    "H0031": "機不可失",
    "H0032": "看更多",
    "H0033": "請輸入您的意見",
    "H0034": "強制汽/機車責任保險中，何謂「一車事故」？一車事故發生時，何者無法申請理賠？",
    "H0034_": {
      "s001": "強制險為依法必須投保的保險，也是驗車時必備險種，目的在使交通事故之受害者，能獲得基本保障，但強制汽車責任保險可提供的保障十分有限，且沒有保障駕駛人及自用車輛的損傷，建議再規劃其他車險補足保障缺口。"
    },
    "H0039": "送出成功",
    "H0040": "送出失敗",
    "H0041": "我知道了"
  },
  "remark-H02": "help/faq",
  "H02": {
    "1_1_1_1": {
      "q": "汽車要有什麽險種才不被罰款？",
      "a": "除了車輛登記証與駕照，駕駛人須帶生效中的汽車强制險憑證。若沒有或沒帶强制險憑證，可被罰款400.000-600.000越南盾。"
    },
    "1_1_1_2": {
      "q": "保險期間的計算方式是什麼？",
      "a": "保險證書的有效時間指定於保險證書上，但要在車主全額支付保費之後才開始生效。期限規定於保險證書上，最短為一年，最長跟定期技術安全檢定和環境保護期限相符。 在這種情況下，檢定期限必須超過一年。"
    },
    "1_1_1_3": {
      "q": "透過國泰產險官網線上購買保險後，我將如何獲得保險單？",
      "a": "投保完成之後，當日保單將發送至您所登記的電子郵箱地址。<br />若需要保單正本，請聯係國泰產險客服，我們會將保單發到您的地址。"
    },
    "1_1_1_4": {
      "q": "請問我可以在哪裡購買汽車險？保險費如何計算？",
      "a": "您可以於國泰產險官網上購買汽車險<br />購買方式：可通過此<a href=\"/online-insurance\">鏈接</a>直接線上購買購買強制險，任意駕駛人乘客險。若針對車體險商品，請聯繫國泰產險客戶服務中心以獲得更多諮詢。<br />保費：取決於您購買的保險類型和保險金額。您可以在此<a href=\"/online-insurance/project-trial-car/calcAmt\">鏈接</a>試算保費。"
    },
    "1_1_2_1": {
      "q": "請問理賠文件包括哪些內容？",
      "a": "理賠時所需要的文件，<a href=\"/member/claim/introduction?intro=assets/json/contract/language_variable/contract01.json#introductionDescription\">查看</a>。"
    },
    "1_1_2_2": {
      "q": "如果我沒有駕照，可以得到理賠嗎？",
      "a": "沒有駕駛執照是保險的免賠條款，因此，如果發生事故，沒有駕駛執照而導致事故的駕駛員將不會獲得保險公司的理賠。"
    },
    "1_1_2_3": {
      "q": "如果車輛在國外發生事故是否可以得到理賠？",
      "a": "如果您未購買越南境外保險商品，而在國外發生事故的情況下，保險公司不負賠償責任。"
    },
    "1_1_2_4": {
      "q": "如果車輛發生意外事故，導致車子被扣留所造成的貨物損失，是否可以理賠？",
      "a": "在車輛發生意外事故而被拘留的情況下，如果汽車有保險，保險公司將理賠車輛的意外損壞。但對於車輛上貨物的延誤（非意外）損壞，則不受理理賠。"
    },
    "1_1_3_1": {
      "q": "為什麼要購買汽車保險？",
      "a": "汽車是一項重大財產，在使用過程中容易遭遇風險和意外事故，導致客戶花費大量費用進行維修彌補損失。為在使用車輛時更加安心，確保分擔可能出現的意外風險，客戶應選擇購買汽車保險，以確保發生以下情況時獲得保障：<br />- 大雨、暴風雨、地震、洪水等自然災害引起的意外事故<br />- 與其他車輛相撞造成的事故<br />- 惡意行為，盜竊造成的事故<br />- 其他意外風險"
    },
    "1_1_3_2": {
      "q": "請問車子更換車主時保險仍然為有效嗎？",
      "a": "若保單條款仍為有效狀態，則保險證書仍然有效。當保單生效時，若想進行車輛所有權轉移，只要舊車主不要求提前終止合約，保險利益將自動轉移給新車主。"
    },
    "1_1_3_3": {
      "q": "購買汽車保險時，需要開增值發票怎麼辦？",
      "a": "您可以在此<a href=\"/help?type=info\">鏈接</a>留下發票信息，包括：公司名稱、公司地址、稅碼和收據信息、電子郵件，手機號碼。國泰產險將盡快為你提供電子發票。"
    },
    "1_1_3_4": {
      "q": "如果銀行要求將汽車保險的受益人轉讓給銀行，該怎麼辦？",
      "a": "如果汽車是銀行貸款的抵押，銀行有權要求將保險受益權轉讓給銀行。<br />受益轉讓的程序如下：<br />- 客戶需要對保單進行訊息修改，國泰產險將根據客人的要求更正保險利益的受益人的訊息。<br />- 更改後的保險證書重新發放給客戶後，客戶可以將保險合同帶到銀行，並進行後續作業。"
    },
    "1_1_3_5": {
      "q": "請問自負額是多少？",
      "a": "自負額通常是客戶在每次損失中與保險公司分擔風險的金額。<br />對於每次損失，客户將按照保單中的規定自行支付固定金额，其餘部分將由保險公司負擔。"
    },
    "1_2_1_1": {
      "q": "機車要有什麽險種才不被罰款？",
      "a": "除了車輛登記証與駕照，駕駛人須帶生效中的機車强制險憑證。若沒有或沒帶强制險憑證，可被罰款100.000-200.000越南盾。"
    },
    "1_2_1_2": {
      "q": "保險期間的計算方式是什麼？",
      "a": "保險證書的有效時間指定於保險證書上，但要在車主全額支付保費之後才開始生效。期限規定於保險證書上，最短為一年，最長為三年。"
    },
    "1_2_1_3": {
      "q": "透過國泰產險官網線上購買保險後，我將如何獲得保險單？",
      "a": "投保完成之後，當日保單將發送至您所登記的電子郵箱地址。<br />若需要保單正本，請聯係國泰產險客服，我們會將保單發到您的地址。"
    },
    "1_2_1_4": {
      "q": "請問在哪裡購買摩托車保險？保險費如何計算？",
      "a": "購買方式：可通過此<a href=\"/online-insurance\">鏈接</a>直接線上購買購買強制險，任意駕駛人乘客險。若針對車體險商品，請聯繫國泰產險客戶服務中心以獲得更多諮詢。<br />保費：取決於您購買的保險類型和保險金額。您可以在此<a href=\"/online-insurance/project-trial-motor/calcAmt\">鏈接</a>試算保費。"
    },
    "1_2_2_1": {
      "q": "若發生意外時，需提交的理賠文件包括哪些？",
      "a": "機車險的理賠文件，<a href=\"/member/claim/introduction?intro=assets/json/contract/language_variable/contract01.json#introductionDescription\">查看</a>。"
    },
    "1_2_3_1": {
      "q": "如果我丟失了保險單，該怎麼辦才能獲得新的保險單？",
      "a": "若要重新簽發保單，請遵循以下辦理：<br />- 盡快聯繫國泰產險，通知並要求重新簽發保險單<br />- 在以下情況可重新簽發保險單：保險單仍然有效，車主擁有所有文件以證明自己是此丟失保險單的所有者，例如：身份證、車輛登記、車輛檢查、費用收據等..."
    },
    "1_2_3_2": {
      "q": "國泰產險對承保車輛進行評估的依據是什麼？",
      "a": "國泰產險針對承保車輛評估，依據以車輛價值而定，車輛價值指的是購買保險時車輛的實際價值，具體依據如下：<br />- 對於新車：汽車的價值是根據公司的零售價格，進口車的CIF價格，製造商的價格表以及市場價格訂定的。<br />- 對於二手車：二手車的價值基於車主的發票、登記稅徵收發票、當地稅務部門的最低價格清單、公共價格清單、銀行抵押、維修升級發票等等"
    },
    "1_3_1_1": {
      "q": "我要提前多久購買旅游險？",
      "a": "保險時間開始前6小時以上就可以投保。"
    },
    "1_3_1_2": {
      "q": "購買保險後，請問我會如何收到保單？",
      "a": "投保完成之後，當日保單將發送至您所登記的電子郵箱地址。<br />若需要保單正本，請聯係國泰產險客服，我們會將保單發到您的地址。"
    },
    "1_3_1_3": {
      "q": "請問發生意外時，可以進行線上理賠嗎？",
      "a": "國泰產險目前線上理賠服務，僅適用於班機延誤、班機取消、改降其他機場相關事故的航班。你可以按<a href=\"/member/claim\">這裡</a>進行線上理賠申請。"
    },
    "1_3_1_4": {
      "q": "誰可以買旅遊險？",
      "a": "國內旅遊險適合給活動參觀、休假、旅行、戲水、爬山或酒店/賓館度假的消費者購買，年齡6周歲至80歲的投保人可以購買本商品。<br />國外旅遊險適合本國人及外國人，在國外進行學習、工作、旅遊或國外探訪親戚時購買，年齡6周歲至80歲的投保人可以購買本商品。"
    },
    "1_3_1_5": {
      "q": "請問如何購買旅遊險？保費如何計算？",
      "a": "購買方式： 你可以按<a href=\"/online-insurance\">這裡</a>進行線上購買<br />保費： 你可以按<a href=\"/online-insurance/project-trial-travel/calcAmt\">這裡</a>進行試算，並選擇保險套餐"
    },
    "1_3_1_6": {
      "q": "保險期間的計算方式是什麼？",
      "a": "國內旅遊險依照不同保單的條款內容，有效期限從旅行出發的實際時間開始計算，並在旅行結束時失效。<br />若您是透過官網購買保險，一趟旅程的最長保險期間為90日。若是超過90日以上的旅程，請聯係國泰產險客服以獲取更多信息。"
    },
    "1_3_1_7": {
      "q": "請問可以為其他人購買國外旅行險嗎？",
      "a": "客戶可以為其他人(如家人、朋友或同一行程的其他人)購買保險，透過官網投保最多可以為9個人投保旅遊險。"
    },
    "1_3_1_8": {
      "q": "國內旅遊險是否承保運動或冒險相關活動？",
      "a": "國泰產險僅承保已支付國泰產險所規定之保險費用，且參加探險、賽車、賽馬、賽船或專業體育比賽等被保險人。"
    },
    "1_3_2_1": {
      "q": "如何申請理賠？",
      "a": "申請理賠時，被保險人或被保險人的代表或合法繼承人應於事故發生之日起6個月內將理賠申請相關文件交付給國泰產險。<br /><a href=\"/member/claim/introduction?intro=assets/json/contract/language_variable/contract02.json#introductionDescription\">查看</a>理賠申請文件名單。"
    },
    "1_3_2_2": {
      "q": "申請在線理賠成功後，何時能收到理賠金？如何收到？",
      "a": "自收到最終檢定結果和所有要求文件之日起 7天工作內，國泰將通知理賠解決結果並寄理賠金額給要保人。 客戶可以通過銀行轉賬或在銀行收取現金的方式來領取理賠金額。"
    },
    "1_3_3_1": {
      "q": "當意外事故發生時，我應該怎麼辦？",
      "a": "<u>國内旅遊險</u><br />當意外事故發生時，被保險人或被保險人的代表需：<br />1. 在24小時內立即以書面形式通知最近的國泰產險服務據點、酒店或旅行社<br />2. 按照國泰產險、酒店或旅行社的指示進行後續作業<br />你也可以聯繫國泰產險理賠部門，聯絡方式如下：<br />胡志明市：0933555920<br />河内：0938999549<br /><u>國外旅遊險</u><br />在海外發生緊急情況時，被保險人可以通過（848）38298520致電ISOS救濟公司尋求幫助，並向救濟公司提供以下信息： 姓名、參與保險類型、保單號或保險證書編號。"
    },
    "1_3_3_2": {
      "q": "請問可以修改保單的裡面的信息嗎？",
      "a": "您必須在保單生效前至少24小時提出書面修改申請，才可以修改保單內的個人訊息和旅程訊息。"
    },
    "1_3_3_3": {
      "q": "請問購買國外旅遊險時，需要進行健康檢查嗎？",
      "a": "您在購買國外旅遊險之前，不需要進行健康檢查。 但是您需要誠實說明自己的健康狀況，必要情況下國泰產險將要求您提供一些有關您的健康狀況資訊。"
    },
    "1_3_3_4": {
      "q": "若發生複保險情形，國泰產險將如何賠付？",
      "a": "若被保險人有同一旅程的多份保單，當保險事件發生，國泰產險將按照被保險人所購買的所有保單之保險金依照比例來賠付。"
    },
    "1_4_1_1": {
      "q": "誰可以買個人傷害險？",
      "a": "傷害保險指的是人身傷害或死亡的保險。<br />購買對象為越南公民，或是在越南工作、學習和生活的外國人，年齡在01至70歲之間（個人傷害保險）或年齡在01至65歲之間（2019-2020年新越南型醫療傷害保險）或年齡在18至65歲之間（一般型傷害保險（全球）/ 越南型傷害保險），以下情況不受理購買傷害險：<br />+ 患有精神疾病，麻風病，癌症的人<br />+ 殘廢程度50%以上或永久殘障的人<br />+ 正在治療疾病或受傷的人<br />+ 在保險規則中有規定的其他特定情況"
    },
    "1_4_1_2": {
      "q": "請問如何購買傷害險？保險費如何計算？",
      "a": "請直接<a href=\"/help?type=info\">聯繫</a>國泰產險，以獲得有關產品套餐和相應保費的詳細信息。"
    },
    "1_4_2_1": {
      "q": "如果不幸發生意外，誰可以申請理賠？",
      "a": "向國泰產險申請理賠時，被保險人本人、被保險人的法定繼承人或授權人可申請理賠，並且必須提交理賠申請表和所需文件，可在<a href=\"/member/claim/introduction?intro=assets/json/contract/language_variable/contract03.json#introductionDescription\">此處</a>找到。"
    },
    "1_4_2_2": {
      "q": "若發生意外時，需提交的理賠文件包括哪些？",
      "a": "個人傷害險的理賠文件，<a href=\"/member/claim/introduction?intro=assets/json/contract/language_variable/contract03.json#introductionDescription\">查看</a>。"
    },
    "1_4_3_1": {
      "q": "請問購買傷害險之前，必須接受體檢嗎？",
      "a": "通常在購買傷害險時，被保險人不需要接受任何醫療檢查，除非在特殊情況下，國泰產險才會要求進行檢查以了解更多健康信息。"
    },
    "1_4_3_2": {
      "q": "如果發生理賠事件，誰能獲得理賠金？",
      "a": "發生保險事件時，理賠金將按以下優先順序賠付：<br />1. 被保險人<br />2. 指定受益人<br />3. 在沒有指定受益人的情況下，被保險人的法律繼承人<br />4. 被保險人的授權人"
    },
    "1_5_1_1": {
      "q": "請問住宅險可以保障什麼內容？",
      "a": "根據客戶的預算，可以選擇以下商品<br />- 僅保障房屋本身<br />- 保障房屋及房屋內的財產"
    },
    "1_5_1_2": {
      "q": "請問可以在哪裡購買住宅險？保險費如何計算？",
      "a": "若要購買住宅保險，請直接<a href=\"/help?type=info\">聯繫</a>國泰產險，即可獲得完整的商品及保費資訊"
    },
    "1_5_1_3": {
      "q": "住宅險的理賠權益為何？",
      "a": "住宅險的理賠權益如下：<br />- 理賠金額為替換或回復成相同類型財產的成本，但低於原本購買房屋時的價值<br />- 如果責任限額大於或等於財產的實際價值，國泰產險將根據實際損壞情形進行理賠<br />- 如果責任限額小於財產的實際價值，國泰產險將以最高額度理賠"
    },
    "1_5_2_1": {
      "q": "若發生意外時，需提交的理賠文件包括哪些？",
      "a": "個人住宅險的理賠文件，<a href=\"/member/claim/introduction?intro=assets/json/contract/language_variable/contract04.json#introductionDescription\">查看</a>。"
    },
    "1_5_2_2": {
      "q": "向國泰產險提出理賠申請時，我該如何鑒定我的財產損失？",
      "a": "國泰產險會以損失時的財產價值進行理賠，如果可以向國泰產險提供財產購買時的發票、收據或維修報價的證明文件，則可以讓財產價值評估更加容易。"
    },
    "1_5_3_1": {
      "q": "我的大多數電器（例如風扇，冰箱，洗衣機，熨斗...）都較舊，請問這些電器是否可以得到保險理賠？",
      "a": "無論財產是新的或舊的，發生意外時都可以得到保障。如果財產有遺失或是無法修復的情況，國泰產險將以相同類型或是等值的財產進行理賠。"
    },
    "1_5_3_2": {
      "q": "我該如何確定房屋和內部財產的價值？",
      "a": "為了確保最大保險利益，您應以下面方式評估房屋及其資產的價值：<br />- 房屋理赔損失時是根據房屋價值，因此您應根據當前的市場價格或預估房屋將來的價值。（考慮通貨膨脹因素，在保險期內可能會出現價格波動）<br />- 內部財產的賠償是財產價值，因此您應評估總財產成本。"
    },
    "1_5_3_3": {
      "q": "如果我的房屋不符規定，我可以投保住宅險嗎？",
      "a": "為了保障您的房屋及財產，您仍然可以投保住宅險，但您需要提供房屋的相關資料給國泰產險進行評估，才能向您提供最好的保險方案。"
    },
    "1_5_3_4": {
      "q": "如果房子幾個月沒人住，在這段時間內如果房屋內部財產有損失的情況發生，是否能夠得到理賠保障？",
      "a": "如果被保險人的房屋在連續30天內沒有人居住，需以書面方式通知國泰產險，以便房屋發生損失時得到理賠服務。"
    },
    "2_1_1_1": {
      "q": "請問如何購買工程保險？",
      "a": "請直接<a href=\"/help?type=info\">聯繫</a>國泰產險，以獲取有關產品和相應保費的詳細咨詢"
    },
    "2_1_1_2": {
      "q": "誰需要購買工程險？",
      "a": "需購買工程險的對象：<br />1.投資者，承包商<br />2.諮詢承包商<br />3.施工承包商<br />4.與建設投資活動有關的其他機構，組織和個人"
    },
    "2_1_2_1": {
      "q": "請問理賠文件包括哪些？",
      "a": "工程險的理賠文件，<a href=\"/member/claim/introduction?intro=assets/json/contract/language_variable/contract05.json#introductionDescription\">查看</a>。"
    },
    "2_1_3_1": {
      "q": "如果不幸發生損失，客戶應該怎麼辦？",
      "a": "發生損失時，客戶應立即：<br />a. 通知消防、警察、地方政府和國泰<br />b. 採取措施防止和/或限制損失<br />c. 保留對於第三方的投訴權<br />d. 未經國泰產險同意，不要接受第三方的談判，承擔任何責任或承諾理賠"
    },
    "2_2_1_1": {
      "q": "請問責任險的保險對象為何？",
      "a": "責任險的保險對象如下：因個人的過失而造成損失的企業組織。"
    },
    "2_2_1_2": {
      "q": "請問哪裡可以購買責任險？保費如何計算？",
      "a": "若要購買責任保險，請直接<a href=\"/help?type=info\">聯繫</a>國泰產險，以獲得相關產品及保費的資訊。"
    },
    "2_2_1_3": {
      "q": "請問責任險的保險範圍有哪些？",
      "a": "被保險人在工作過程中造成的疏忽或錯誤，保險公司將替被保險人向第三方支付的部分或全部賠償金。"
    },
    "2_2_2_1": {
      "q": "請問理賠文件包括哪些？",
      "a": "責任險的理賠文件，<a href=\"/member/claim/introduction?intro=assets/json/contract/language_variable/contract06.json#introductionDescription\">查看</a>。"
    },
    "2_2_3_1": {
      "q": "如果發生事故，客戶應該怎麼辦？",
      "a": "發生損失時，客戶應立即： <br />a. 通知消防局、警察局、地方政府和國泰產險 <br />b. 盡力降低損失擴大<br />c. 保留對於第三方的起訴權 <br />d. 未經國泰產險同意，不要接受第三方的談判，承擔任何責任或承諾理賠"
    },
    "2_3_1_1": {
      "q": "請問哪裏可以購買財產險？保險費怎麼計算？",
      "a": "若要購買財產保險，請直接<a href=\"/help?type=info\">聯繫</a>國泰產險，以獲得相關產品及保費的資訊。"
    },
    "2_3_1_2": {
      "q": "購買財產保險時應提供什麼文件？",
      "a": "購買財產保險時，需提供以下文件<br />1.投保申請書<br />2.財產名冊<br />3.提供消防安全檢查記錄<br />4.國泰產險要求的其他文件和資料<br />5.須跟國泰產險配合進行評估風險"
    },
    "2_3_2_1": {
      "q": "請問理賠文件包括哪些？",
      "a": "財產險的理賠文件，<a href=\"/member/claim/introduction?intro=assets/json/contract/language_variable/contract07.json#introductionDescription\">查看</a>。"
    },
    "2_4_1_1": {
      "q": "請問在哪裏可以購買貨物運輸險？保險費如何計算？",
      "a": "請直接<a href=\"/help?type=info\">聯繫</a>國泰產險，即可獲得完整的商品及保費資訊。費率取決於商品類型，包裝方式，運輸方式，路線..."
    },
    "2_4_1_2": {
      "q": "購買貨物運輸險後，何時保險生效？",
      "a": "當貨物離開倉庫，或是合約指定地點那刻起，保險就算是生效。"
    },
    "2_4_1_3": {
      "q": "請問若發生事故時，哪些費用會獲得理賠？",
      "a": "當購買貨物運輸險並發生保險範圍內的意外時，以下費用會獲得理賠： <br />- 為了避免貨物發生損失而產生的費用。 <br />- 在途中發生意外事故而導致卸貨、存貨、運輸貨物的費用 <br />- 損失發生時評估而產生的費用。<br />- 其他費用"
    },
    "2_4_2_1": {
      "q": "請問理賠文件包括哪些？",
      "a": "貨物運輸險的理賠文件，<a href=\"/member/claim/introduction?intro=assets/json/contract/language_variable/contract08.json#introductionDescription\">查看</a>。"
    },
    "2_4_3_1": {
      "q": "如果不幸發生損失，我應該怎麼辦？",
      "a": "發生損失時，客戶應立即： <br />a. 通知消防局、警察局、地方政府和國泰產險 <br />b. 盡力降低損害發生 <br />c. 保留對於第三方的起訴權"
    }
  }
}
